mytest_a/test_run_dir/ALU_should_pass/Alu.vcd
$date
2023-11-23T19:52+0000
$end
$version
0.2
$end
$comment

$end
$timescale 1ns  $end
$scope module Alu $end
 $var wire 32 ! oprand2 $end
 $var wire 32 " oprand1 $end
 $var wire 32 # io_dataRead1 $end
 $var wire 32 $ io_dataRead2 $end
 $var wire 1 % resultBranch $end
 $var wire 1 & reset $end
 $var wire 4 ' io_bundleAluControl_ctrlOP $end
 $var wire 32 ( io_imm $end
 $var wire 1 ) io_resultBranch $end
 $var wire 32 * io_pc $end
 $var wire 1 + io_bundleAluControl_ctrlALUSrc $end
 $var wire 1 , io_bundleAluControl_ctrlJAL $end
 $var wire 32 - io_resultAlu $end
 $var wire 1 . clock $end
 $var wire 32 / resultAlu $end
 $var wire 1 0 io_bundleAluControl_ctrlSigned $end
 $var wire 1 1 io_bundleAluControl_ctrlBranch $end
$upscope $end
$enddefinitions $end
$dumpvars
00
01
b00000000000000000000000000000000 *
b00000000000000000000000000000000 -
b00000000000000000000000000000000 (
b00000000000000000000000000000000 #
b00000000000000000000000000000000 "
b00000000000000000000000000000000 $
b00000000000000000000000000000000 !
b0000 '
0%
0&
0)
0+
0,
b00000000000000000000000000000000 /
0.
$end
#0
1&
#1
1.
#6
10
b01010001111101011001101100101000 !
b01010001111101011001101100101000 "
b01010001111101011001101100101000 #
b00000000000000000000000000000000 $
0&
b01010001111101011001101100101000 (
b00000000000000000000000000000000 *
1+
0,
0.
#11
1.
#16
00
b01010001111101011001101100101000 !
b01010001111101011001101100101000 "
b01010001111101011001101100101000 #
b00000000000000000000000000000000 $
b01010001111101011001101100101000 (
b00000000000000000000000000000000 *
1+
0,
0.
#21
1.
#26
b01010001111101011001101100101000 !
b01010001111101011001101100101000 "
b01010001111101011001101100101000 #
b00000000000000000000000000000000 $
b0001 '
b01010001111101011001101100101000 (
b00000000000000000000000000000000 *
1+
0,
b10100011111010110011011001010000 -
0.
b10100011111010110011011001010000 /
10
#31
1.
#36
b01010001111101011001101100101000 !
b01010001111101011001101100101000 "
b01010001111101011001101100101000 #
b00000000000000000000000000000000 $
b01010001111101011001101100101000 (
b00000000000000000000000000000000 *
1+
0,
b10100011111010110011011001010000 -
0.
b10100011111010110011011001010000 /
00
#41
1.
#46
b01010001111101011001101100101000 !
b01010001111101011001101100101000 "
b01010001111101011001101100101000 #
b00000000000000000000000000000000 $
b0010 '
b01010001111101011001101100101000 (
b00000000000000000000000000000000 *
1+
0,
b00000000000000000000000000000000 -
0.
b00000000000000000000000000000000 /
10
#51
1.
#56
b01010001111101011001101100101000 !
b01010001111101011001101100101000 "
b01010001111101011001101100101000 #
b00000000000000000000000000000000 $
b01010001111101011001101100101000 (
b00000000000000000000000000000000 *
1+
0,
b00000000000000000000000000000000 -
0.
b00000000000000000000000000000000 /
00
#61
1.
#66
b01010001111101011001101100101000 !
b01010001111101011001101100101000 "
b01010001111101011001101100101000 #
b00000000000000000000000000000000 $
b0100 '
b01010001111101011001101100101000 (
b00000000000000000000000000000000 *
1+
0,
b01010001111101011001101100101000 -
0.
b01010001111101011001101100101000 /
10
#71
1.
#76
b01010001111101011001101100101000 !
b01010001111101011001101100101000 "
b01010001111101011001101100101000 #
b00000000000000000000000000000000 $
b01010001111101011001101100101000 (
b00000000000000000000000000000000 *
1+
0,
b01010001111101011001101100101000 -
0.
b01010001111101011001101100101000 /
00
#81
1.
#86
b01010001111101011001101100101000 !
b01010001111101011001101100101000 "
b01010001111101011001101100101000 #
b00000000000000000000000000000000 $
b0101 '
b01010001111101011001101100101000 (
b00000000000000000000000000000000 *
1+
0,
b01010001111101011001101100101000 -
0.
b01010001111101011001101100101000 /
10
#91
1.
#96
b01010001111101011001101100101000 !
b01010001111101011001101100101000 "
b01010001111101011001101100101000 #
b00000000000000000000000000000000 $
b01010001111101011001101100101000 (
b00000000000000000000000000000000 *
1+
0,
b01010001111101011001101100101000 -
0.
b01010001111101011001101100101000 /
00
#101
1.
#106
b01010001111101011001101100101000 !
b01010001111101011001101100101000 "
b01010001111101011001101100101000 #
b00000000000000000000000000000000 $
b0111 '
b01010001111101011001101100101000 (
b00000000000000000000000000000000 *
1+
0,
b00000000000000000000000000000000 -
0.
b00000000000000000000000000000000 /
10
#111
1.
#116
b01010001111101011001101100101000 !
b01010001111101011001101100101000 "
b01010001111101011001101100101000 #
b00000000000000000000000000000000 $
b01010001111101011001101100101000 (
b00000000000000000000000000000000 *
1+
0,
b00000000000000000000000000000000 -
0.
b00000000000000000000000000000000 /
00
#121
1.
#126
b01010001111101011001101100101000 !
b01010001111101011001101100101000 "
b01010001111101011001101100101000 #
b00000000000000000000000000000000 $
b1000 '
b01010001111101011001101100101000 (
b00000000000000000000000000000000 *
1+
0,
b11110101100110110010100000000000 -
0.
b11110101100110110010100000000000 /
10
#131
1.
#136
b01010001111101011001101100101000 !
b01010001111101011001101100101000 "
b01010001111101011001101100101000 #
b00000000000000000000000000000000 $
b01010001111101011001101100101000 (
b00000000000000000000000000000000 *
1+
0,
b11110101100110110010100000000000 -
0.
b11110101100110110010100000000000 /
00
#141
1.
#146
b01010001111101011001101100101000 !
b01010001111101011001101100101000 "
b01010001111101011001101100101000 #
b00000000000000000000000000000000 $
b1001 '
b01010001111101011001101100101000 (
b00000000000000000000000000000000 *
1+
0,
b00000000010100011111010110011011 -
0.
b00000000010100011111010110011011 /
10
#151
1.
#156
b01010001111101011001101100101000 !
b01010001111101011001101100101000 "
b01010001111101011001101100101000 #
b00000000000000000000000000000000 $
b01010001111101011001101100101000 (
b00000000000000000000000000000000 *
1+
0,
b00000000010100011111010110011011 -
0.
b00000000010100011111010110011011 /
00
#161
1.
#166
b01010001111101011001101100101000 !
b01010001111101011001101100101000 "
b01010001111101011001101100101000 #
b00000000000000000000000000000000 $
b1011 '
b01010001111101011001101100101000 (
b00000000000000000000000000000000 *
1+
0,
b00000000010100011111010110011011 -
0.
b00000000010100011111010110011011 /
10
#171
1.
#176
b01010001111101011001101100101000 !
b01010001111101011001101100101000 "
b01010001111101011001101100101000 #
b00000000000000000000000000000000 $
b01010001111101011001101100101000 (
b00000000000000000000000000000000 *
1+
0,
b00000000010100011111010110011011 -
0.
b00000000010100011111010110011011 /
00
#181
1.
#186
b01011111100000101111011101110100 !
b01010001111101011001101100101000 "
b01010001111101011001101100101000 #
b00000000000000000000000000000000 $
b0000 '
b01011111100000101111011101110100 (
b00000000000000000000000000000000 *
1+
0,
b00000000000000000000000000000000 -
0.
b00000000000000000000000000000000 /
10
#191
1.
#196
00
b01011111100000101111011101110100 !
b01010001111101011001101100101000 "
b01010001111101011001101100101000 #
b00000000000000000000000000000000 $
b01011111100000101111011101110100 (
b00000000000000000000000000000000 *
1+
0,
0.
#201
1.
#206
b01011111100000101111011101110100 !
b01010001111101011001101100101000 "
b01010001111101011001101100101000 #
b00000000000000000000000000000000 $
b0001 '
b01011111100000101111011101110100 (
b00000000000000000000000000000000 *
1+
0,
b10110001011110001001001010011100 -
0.
b10110001011110001001001010011100 /
10
#211
1.
#216
b01011111100000101111011101110100 !
b01010001111101011001101100101000 "
b01010001111101011001101100101000 #
b00000000000000000000000000000000 $
b01011111100000101111011101110100 (
b00000000000000000000000000000000 *
1+
0,
b10110001011110001001001010011100 -
0.
b10110001011110001001001010011100 /
00
#221
1.
#226
b01011111100000101111011101110100 !
b01010001111101011001101100101000 "
b01010001111101011001101100101000 #
b00000000000000000000000000000000 $
b0010 '
b01011111100000101111011101110100 (
b00000000000000000000000000000000 *
1+
0,
b11110010011100101010001110110100 -
0.
b11110010011100101010001110110100 /
10
#231
1.
#236
b01011111100000101111011101110100 !
b01010001111101011001101100101000 "
b01010001111101011001101100101000 #
b00000000000000000000000000000000 $
b01011111100000101111011101110100 (
b00000000000000000000000000000000 *
1+
0,
b11110010011100101010001110110100 -
0.
b11110010011100101010001110110100 /
00
#241
1.
#246
b01011111100000101111011101110100 !
b01010001111101011001101100101000 "
b01010001111101011001101100101000 #
b00000000000000000000000000000000 $
b0100 '
b01011111100000101111011101110100 (
b00000000000000000000000000000000 *
1+
0,
b01010001100000001001001100100000 -
0.
b01010001100000001001001100100000 /
10
#251
1.
#256
b01011111100000101111011101110100 !
b01010001111101011001101100101000 "
b01010001111101011001101100101000 #
b00000000000000000000000000000000 $
b01011111100000101111011101110100 (
b00000000000000000000000000000000 *
1+
0,
b01010001100000001001001100100000 -
0.
b01010001100000001001001100100000 /
00
#261
1.
#266
b01011111100000101111011101110100 !
b01010001111101011001101100101000 "
b01010001111101011001101100101000 #
b00000000000000000000000000000000 $
b0101 '
b01011111100000101111011101110100 (
b00000000000000000000000000000000 *
1+
0,
b01011111111101111111111101111100 -
0.
b01011111111101111111111101111100 /
10
#271
1.
#276
b01011111100000101111011101110100 !
b01010001111101011001101100101000 "
b01010001111101011001101100101000 #
b00000000000000000000000000000000 $
b01011111100000101111011101110100 (
b00000000000000000000000000000000 *
1+
0,
b01011111111101111111111101111100 -
0.
b01011111111101111111111101111100 /
00
#281
1.
#286
b01011111100000101111011101110100 !
b01010001111101011001101100101000 "
b01010001111101011001101100101000 #
b00000000000000000000000000000000 $
b0111 '
b01011111100000101111011101110100 (
b00000000000000000000000000000000 *
1+
0,
b00001110011101110110110001011100 -
0.
b00001110011101110110110001011100 /
10
#291
1.
#296
b01011111100000101111011101110100 !
b01010001111101011001101100101000 "
b01010001111101011001101100101000 #
b00000000000000000000000000000000 $
b01011111100000101111011101110100 (
b00000000000000000000000000000000 *
1+
0,
b00001110011101110110110001011100 -
0.
b00001110011101110110110001011100 /
00
#301
1.
#306
b01011111100000101111011101110100 !
b01010001111101011001101100101000 "
b01010001111101011001101100101000 #
b00000000000000000000000000000000 $
b1000 '
b01011111100000101111011101110100 (
b00000000000000000000000000000000 *
1+
0,
b10110010100000000000000000000000 -
0.
b10110010100000000000000000000000 /
10
#311
1.
#316
b01011111100000101111011101110100 !
b01010001111101011001101100101000 "
b01010001111101011001101100101000 #
b00000000000000000000000000000000 $
b01011111100000101111011101110100 (
b00000000000000000000000000000000 *
1+
0,
b10110010100000000000000000000000 -
0.
b10110010100000000000000000000000 /
00
#321
1.
#326
b01011111100000101111011101110100 !
b01010001111101011001101100101000 "
b01010001111101011001101100101000 #
b00000000000000000000000000000000 $
b1001 '
b01011111100000101111011101110100 (
b00000000000000000000000000000000 *
1+
0,
b00000000000000000000010100011111 -
0.
b00000000000000000000010100011111 /
10
#331
1.
#336
b01011111100000101111011101110100 !
b01010001111101011001101100101000 "
b01010001111101011001101100101000 #
b00000000000000000000000000000000 $
b01011111100000101111011101110100 (
b00000000000000000000000000000000 *
1+
0,
b00000000000000000000010100011111 -
0.
b00000000000000000000010100011111 /
00
#341
1.
#346
b01011111100000101111011101110100 !
b01010001111101011001101100101000 "
b01010001111101011001101100101000 #
b00000000000000000000000000000000 $
b1011 '
b01011111100000101111011101110100 (
b00000000000000000000000000000000 *
1+
0,
b00000000000000000000010100011111 -
0.
b00000000000000000000010100011111 /
10
#351
1.
#356
b01011111100000101111011101110100 !
b01010001111101011001101100101000 "
b01010001111101011001101100101000 #
b00000000000000000000000000000000 $
b01011111100000101111011101110100 (
b00000000000000000000000000000000 *
1+
0,
b00000000000000000000010100011111 -
0.
b00000000000000000000010100011111 /
00
#361
1.
#366
b01000010001011111111001001110001 !
b01010001111101011001101100101000 "
b01010001111101011001101100101000 #
b00000000000000000000000000000000 $
b0000 '
b01000010001011111111001001110001 (
b00000000000000000000000000000000 *
1+
0,
b00000000000000000000000000000000 -
0.
b00000000000000000000000000000000 /
10
#371
1.
#376
00
b01000010001011111111001001110001 !
b01010001111101011001101100101000 "
b01010001111101011001101100101000 #
b00000000000000000000000000000000 $
b01000010001011111111001001110001 (
b00000000000000000000000000000000 *
1+
0,
0.
#381
1.
#386
b01000010001011111111001001110001 !
b01010001111101011001101100101000 "
b01010001111101011001101100101000 #
b00000000000000000000000000000000 $
b0001 '
b01000010001011111111001001110001 (
b00000000000000000000000000000000 *
1+
0,
b10010100001001011000110110011001 -
0.
b10010100001001011000110110011001 /
10
#391
1.
#396
b01000010001011111111001001110001 !
b01010001111101011001101100101000 "
b01010001111101011001101100101000 #
b00000000000000000000000000000000 $
b01000010001011111111001001110001 (
b00000000000000000000000000000000 *
1+
0,
b10010100001001011000110110011001 -
0.
b10010100001001011000110110011001 /
00
#401
1.
#406
b01000010001011111111001001110001 !
b01010001111101011001101100101000 "
b01010001111101011001101100101000 #
b00000000000000000000000000000000 $
b0010 '
b01000010001011111111001001110001 (
b00000000000000000000000000000000 *
1+
0,
b00001111110001011010100010110111 -
0.
b00001111110001011010100010110111 /
10
#411
1.
#416
b01000010001011111111001001110001 !
b01010001111101011001101100101000 "
b01010001111101011001101100101000 #
b00000000000000000000000000000000 $
b01000010001011111111001001110001 (
b00000000000000000000000000000000 *
1+
0,
b00001111110001011010100010110111 -
0.
b00001111110001011010100010110111 /
00
#421
1.
#426
b01000010001011111111001001110001 !
b01010001111101011001101100101000 "
b01010001111101011001101100101000 #
b00000000000000000000000000000000 $
b0100 '
b01000010001011111111001001110001 (
b00000000000000000000000000000000 *
1+
0,
b01000000001001011001001000100000 -
0.
b01000000001001011001001000100000 /
10
#431
1.
#436
b01000010001011111111001001110001 !
b01010001111101011001101100101000 "
b01010001111101011001101100101000 #
b00000000000000000000000000000000 $
b01000010001011111111001001110001 (
b00000000000000000000000000000000 *
1+
0,
b01000000001001011001001000100000 -
0.
b01000000001001011001001000100000 /
00
#441
1.
#446
b01000010001011111111001001110001 !
b01010001111101011001101100101000 "
b01010001111101011001101100101000 #
b00000000000000000000000000000000 $
b0101 '
b01000010001011111111001001110001 (
b00000000000000000000000000000000 *
1+
0,
b01010011111111111111101101111001 -
0.
b01010011111111111111101101111001 /
10
#451
1.
#456
b01000010001011111111001001110001 !
b01010001111101011001101100101000 "
b01010001111101011001101100101000 #
b00000000000000000000000000000000 $
b01000010001011111111001001110001 (
b00000000000000000000000000000000 *
1+
0,
b01010011111111111111101101111001 -
0.
b01010011111111111111101101111001 /
00
#461
1.
#466
b01000010001011111111001001110001 !
b01010001111101011001101100101000 "
b01010001111101011001101100101000 #
b00000000000000000000000000000000 $
b0111 '
b01000010001011111111001001110001 (
b00000000000000000000000000000000 *
1+
0,
b00010011110110100110100101011001 -
0.
b00010011110110100110100101011001 /
10
#471
1.
#476
b01000010001011111111001001110001 !
b01010001111101011001101100101000 "
b01010001111101011001101100101000 #
b00000000000000000000000000000000 $
b01000010001011111111001001110001 (
b00000000000000000000000000000000 *
1+
0,
b00010011110110100110100101011001 -
0.
b00010011110110100110100101011001 /
00
#481
1.
#486
b01000010001011111111001001110001 !
b01010001111101011001101100101000 "
b01010001111101011001101100101000 #
b00000000000000000000000000000000 $
b1000 '
b01000010001011111111001001110001 (
b00000000000000000000000000000000 *
1+
0,
b00110110010100000000000000000000 -
0.
b00110110010100000000000000000000 /
10
#491
1.
#496
b01000010001011111111001001110001 !
b01010001111101011001101100101000 "
b01010001111101011001101100101000 #
b00000000000000000000000000000000 $
b01000010001011111111001001110001 (
b00000000000000000000000000000000 *
1+
0,
b00110110010100000000000000000000 -
0.
b00110110010100000000000000000000 /
00
#501
1.
#506
b01000010001011111111001001110001 !
b01010001111101011001101100101000 "
b01010001111101011001101100101000 #
b00000000000000000000000000000000 $
b1001 '
b01000010001011111111001001110001 (
b00000000000000000000000000000000 *
1+
0,
b00000000000000000010100011111010 -
0.
b00000000000000000010100011111010 /
10
#511
1.
#516
b01000010001011111111001001110001 !
b01010001111101011001101100101000 "
b01010001111101011001101100101000 #
b00000000000000000000000000000000 $
b01000010001011111111001001110001 (
b00000000000000000000000000000000 *
1+
0,
b00000000000000000010100011111010 -
0.
b00000000000000000010100011111010 /
00
#521
1.
#526
b01000010001011111111001001110001 !
b01010001111101011001101100101000 "
b01010001111101011001101100101000 #
b00000000000000000000000000000000 $
b1011 '
b01000010001011111111001001110001 (
b00000000000000000000000000000000 *
1+
0,
b00000000000000000010100011111010 -
0.
b00000000000000000010100011111010 /
10
#531
1.
#536
b01000010001011111111001001110001 !
b01010001111101011001101100101000 "
b01010001111101011001101100101000 #
b00000000000000000000000000000000 $
b01000010001011111111001001110001 (
b00000000000000000000000000000000 *
1+
0,
b00000000000000000010100011111010 -
0.
b00000000000000000010100011111010 /
00
#541
1.
#546
b11001000000101011000100010101101 !
b01010001111101011001101100101000 "
b01010001111101011001101100101000 #
b00000000000000000000000000000000 $
b0000 '
b11001000000101011000100010101101 (
b00000000000000000000000000000000 *
1+
0,
b00000000000000000000000000000000 -
0.
b00000000000000000000000000000000 /
10
#551
1.
#556
00
b11001000000101011000100010101101 !
b01010001111101011001101100101000 "
b01010001111101011001101100101000 #
b00000000000000000000000000000000 $
b11001000000101011000100010101101 (
b00000000000000000000000000000000 *
1+
0,
0.
#561
1.
#566
b11001000000101011000100010101101 !
b01010001111101011001101100101000 "
b01010001111101011001101100101000 #
b00000000000000000000000000000000 $
b0001 '
b11001000000101011000100010101101 (
b00000000000000000000000000000000 *
1+
0,
b00011010000010110010001111010101 -
0.
b00011010000010110010001111010101 /
10
#571
1.
#576
b11001000000101011000100010101101 !
b01010001111101011001101100101000 "
b01010001111101011001101100101000 #
b00000000000000000000000000000000 $
b11001000000101011000100010101101 (
b00000000000000000000000000000000 *
1+
0,
b00011010000010110010001111010101 -
0.
b00011010000010110010001111010101 /
00
#581
1.
#586
b11001000000101011000100010101101 !
b01010001111101011001101100101000 "
b01010001111101011001101100101000 #
b00000000000000000000000000000000 $
b0010 '
b11001000000101011000100010101101 (
b00000000000000000000000000000000 *
1+
0,
b10001001111000000001001001111011 -
0.
b10001001111000000001001001111011 /
10
#591
1.
#596
b11001000000101011000100010101101 !
b01010001111101011001101100101000 "
b01010001111101011001101100101000 #
b00000000000000000000000000000000 $
b11001000000101011000100010101101 (
b00000000000000000000000000000000 *
1+
0,
b10001001111000000001001001111011 -
0.
b10001001111000000001001001111011 /
00
#601
1.
#606
b11001000000101011000100010101101 !
b01010001111101011001101100101000 "
b01010001111101011001101100101000 #
b00000000000000000000000000000000 $
b0100 '
b11001000000101011000100010101101 (
b00000000000000000000000000000000 *
1+
0,
b01000000000101011000100000101000 -
0.
b01000000000101011000100000101000 /
10
#611
1.
#616
b11001000000101011000100010101101 !
b01010001111101011001101100101000 "
b01010001111101011001101100101000 #
b00000000000000000000000000000000 $
b11001000000101011000100010101101 (
b00000000000000000000000000000000 *
1+
0,
b01000000000101011000100000101000 -
0.
b01000000000101011000100000101000 /
00
#621
1.
#626
b11001000000101011000100010101101 !
b01010001111101011001101100101000 "
b01010001111101011001101100101000 #
b00000000000000000000000000000000 $
b0101 '
b11001000000101011000100010101101 (
b00000000000000000000000000000000 *
1+
0,
b11011001111101011001101110101101 -
0.
b11011001111101011001101110101101 /
10
#631
1.
#636
b11001000000101011000100010101101 !
b01010001111101011001101100101000 "
b01010001111101011001101100101000 #
b00000000000000000000000000000000 $
b11001000000101011000100010101101 (
b00000000000000000000000000000000 *
1+
0,
b11011001111101011001101110101101 -
0.
b11011001111101011001101110101101 /
00
#641
1.
#646
b11001000000101011000100010101101 !
b01010001111101011001101100101000 "
b01010001111101011001101100101000 #
b00000000000000000000000000000000 $
b0111 '
b11001000000101011000100010101101 (
b00000000000000000000000000000000 *
1+
0,
b10011001111000000001001110000101 -
0.
b10011001111000000001001110000101 /
10
#651
1.
#656
b11001000000101011000100010101101 !
b01010001111101011001101100101000 "
b01010001111101011001101100101000 #
b00000000000000000000000000000000 $
b11001000000101011000100010101101 (
b00000000000000000000000000000000 *
1+
0,
b10011001111000000001001110000101 -
0.
b10011001111000000001001110000101 /
00
#661
1.
#666
b11001000000101011000100010101101 !
b01010001111101011001101100101000 "
b01010001111101011001101100101000 #
b00000000000000000000000000000000 $
b1000 '
b11001000000101011000100010101101 (
b00000000000000000000000000000000 *
1+
0,
b10110011011001010000000000000000 -
0.
b10110011011001010000000000000000 /
10
#671
1.
#676
b11001000000101011000100010101101 !
b01010001111101011001101100101000 "
b01010001111101011001101100101000 #
b00000000000000000000000000000000 $
b11001000000101011000100010101101 (
b00000000000000000000000000000000 *
1+
0,
b10110011011001010000000000000000 -
0.
b10110011011001010000000000000000 /
00
#681
1.
#686
b11001000000101011000100010101101 !
b01010001111101011001101100101000 "
b01010001111101011001101100101000 #
b00000000000000000000000000000000 $
b1001 '
b11001000000101011000100010101101 (
b00000000000000000000000000000000 *
1+
0,
b00000000000000101000111110101100 -
0.
b00000000000000101000111110101100 /
10
#691
1.
#696
b11001000000101011000100010101101 !
b01010001111101011001101100101000 "
b01010001111101011001101100101000 #
b00000000000000000000000000000000 $
b11001000000101011000100010101101 (
b00000000000000000000000000000000 *
1+
0,
b00000000000000101000111110101100 -
0.
b00000000000000101000111110101100 /
00
#701
1.
#706
b11001000000101011000100010101101 !
b01010001111101011001101100101000 "
b01010001111101011001101100101000 #
b00000000000000000000000000000000 $
b1011 '
b11001000000101011000100010101101 (
b00000000000000000000000000000000 *
1+
0,
b00000000000000101000111110101100 -
0.
b00000000000000101000111110101100 /
10
#711
1.
#716
b11001000000101011000100010101101 !
b01010001111101011001101100101000 "
b01010001111101011001101100101000 #
b00000000000000000000000000000000 $
b11001000000101011000100010101101 (
b00000000000000000000000000000000 *
1+
0,
b00000000000000101000111110101100 -
0.
b00000000000000101000111110101100 /
00
#721
1.
#726
b01101111111101001101011111001100 !
b01010001111101011001101100101000 "
b01010001111101011001101100101000 #
b00000000000000000000000000000000 $
b0000 '
b01101111111101001101011111001100 (
b00000000000000000000000000000000 *
1+
0,
b00000000000000000000000000000000 -
0.
b00000000000000000000000000000000 /
10
#731
1.
#736
00
b01101111111101001101011111001100 !
b01010001111101011001101100101000 "
b01010001111101011001101100101000 #
b00000000000000000000000000000000 $
b01101111111101001101011111001100 (
b00000000000000000000000000000000 *
1+
0,
0.
#741
1.
#746
b01101111111101001101011111001100 !
b01010001111101011001101100101000 "
b01010001111101011001101100101000 #
b00000000000000000000000000000000 $
b0001 '
b01101111111101001101011111001100 (
b00000000000000000000000000000000 *
1+
0,
b11000001111010100111001011110100 -
0.
b11000001111010100111001011110100 /
10
#751
1.
#756
b01101111111101001101011111001100 !
b01010001111101011001101100101000 "
b01010001111101011001101100101000 #
b00000000000000000000000000000000 $
b01101111111101001101011111001100 (
b00000000000000000000000000000000 *
1+
0,
b11000001111010100111001011110100 -
0.
b11000001111010100111001011110100 /
00
#761
1.
#766
b01101111111101001101011111001100 !
b01010001111101011001101100101000 "
b01010001111101011001101100101000 #
b00000000000000000000000000000000 $
b0010 '
b01101111111101001101011111001100 (
b00000000000000000000000000000000 *
1+
0,
b11100010000000001100001101011100 -
0.
b11100010000000001100001101011100 /
10
#771
1.
#776
b01101111111101001101011111001100 !
b01010001111101011001101100101000 "
b01010001111101011001101100101000 #
b00000000000000000000000000000000 $
b01101111111101001101011111001100 (
b00000000000000000000000000000000 *
1+
0,
b11100010000000001100001101011100 -
0.
b11100010000000001100001101011100 /
00
#781
1.
#786
b01101111111101001101011111001100 !
b01010001111101011001101100101000 "
b01010001111101011001101100101000 #
b00000000000000000000000000000000 $
b0100 '
b01101111111101001101011111001100 (
b00000000000000000000000000000000 *
1+
0,
b01000001111101001001001100001000 -
0.
b01000001111101001001001100001000 /
10
#791
1.
#796
b01101111111101001101011111001100 !
b01010001111101011001101100101000 "
b01010001111101011001101100101000 #
b00000000000000000000000000000000 $
b01101111111101001101011111001100 (
b00000000000000000000000000000000 *
1+
0,
b01000001111101001001001100001000 -
0.
b01000001111101001001001100001000 /
00
#801
1.
#806
b01101111111101001101011111001100 !
b01010001111101011001101100101000 "
b01010001111101011001101100101000 #
b00000000000000000000000000000000 $
b0101 '
b01101111111101001101011111001100 (
b00000000000000000000000000000000 *
1+
0,
b01111111111101011101111111101100 -
0.
b01111111111101011101111111101100 /
10
#811
1.
#816
b01101111111101001101011111001100 !
b01010001111101011001101100101000 "
b01010001111101011001101100101000 #
b00000000000000000000000000000000 $
b01101111111101001101011111001100 (
b00000000000000000000000000000000 *
1+
0,
b01111111111101011101111111101100 -
0.
b01111111111101011101111111101100 /
00
#821
1.
#826
b01101111111101001101011111001100 !
b01010001111101011001101100101000 "
b01010001111101011001101100101000 #
b00000000000000000000000000000000 $
b0111 '
b01101111111101001101011111001100 (
b00000000000000000000000000000000 *
1+
0,
b00111110000000010100110011100100 -
0.
b00111110000000010100110011100100 /
10
#831
1.
#836
b01101111111101001101011111001100 !
b01010001111101011001101100101000 "
b01010001111101011001101100101000 #
b00000000000000000000000000000000 $
b01101111111101001101011111001100 (
b00000000000000000000000000000000 *
1+
0,
b00111110000000010100110011100100 -
0.
b00111110000000010100110011100100 /
00
#841
1.
#846
b01101111111101001101011111001100 !
b01010001111101011001101100101000 "
b01010001111101011001101100101000 #
b00000000000000000000000000000000 $
b1000 '
b01101111111101001101011111001100 (
b00000000000000000000000000000000 *
1+
0,
b01011001101100101000000000000000 -
0.
b01011001101100101000000000000000 /
10
#851
1.
#856
b01101111111101001101011111001100 !
b01010001111101011001101100101000 "
b01010001111101011001101100101000 #
b00000000000000000000000000000000 $
b01101111111101001101011111001100 (
b00000000000000000000000000000000 *
1+
0,
b01011001101100101000000000000000 -
0.
b01011001101100101000000000000000 /
00
#861
1.
#866
b01101111111101001101011111001100 !
b01010001111101011001101100101000 "
b01010001111101011001101100101000 #
b00000000000000000000000000000000 $
b1001 '
b01101111111101001101011111001100 (
b00000000000000000000000000000000 *
1+
0,
b00000000000001010001111101011001 -
0.
b00000000000001010001111101011001 /
10
#871
1.
#876
b01101111111101001101011111001100 !
b01010001111101011001101100101000 "
b01010001111101011001101100101000 #
b00000000000000000000000000000000 $
b01101111111101001101011111001100 (
b00000000000000000000000000000000 *
1+
0,
b00000000000001010001111101011001 -
0.
b00000000000001010001111101011001 /
00
#881
1.
#886
b01101111111101001101011111001100 !
b01010001111101011001101100101000 "
b01010001111101011001101100101000 #
b00000000000000000000000000000000 $
b1011 '
b01101111111101001101011111001100 (
b00000000000000000000000000000000 *
1+
0,
b00000000000001010001111101011001 -
0.
b00000000000001010001111101011001 /
10
#891
1.
#896
b01101111111101001101011111001100 !
b01010001111101011001101100101000 "
b01010001111101011001101100101000 #
b00000000000000000000000000000000 $
b01101111111101001101011111001100 (
b00000000000000000000000000000000 *
1+
0,
b00000000000001010001111101011001 -
0.
b00000000000001010001111101011001 /
00
#901
1.
#906
b00100110011000111011010110001000 !
b01010001111101011001101100101000 "
b01010001111101011001101100101000 #
b00000000000000000000000000000000 $
b0000 '
b00100110011000111011010110001000 (
b00000000000000000000000000000000 *
1+
0,
b00000000000000000000000000000000 -
0.
b00000000000000000000000000000000 /
10
#911
1.
#916
00
b00100110011000111011010110001000 !
b01010001111101011001101100101000 "
b01010001111101011001101100101000 #
b00000000000000000000000000000000 $
b00100110011000111011010110001000 (
b00000000000000000000000000000000 *
1+
0,
0.
#921
1.
#926
b00100110011000111011010110001000 !
b01010001111101011001101100101000 "
b01010001111101011001101100101000 #
b00000000000000000000000000000000 $
b0001 '
b00100110011000111011010110001000 (
b00000000000000000000000000000000 *
1+
0,
b01111000010110010101000010110000 -
0.
b01111000010110010101000010110000 /
10
#931
1.
#936
b00100110011000111011010110001000 !
b01010001111101011001101100101000 "
b01010001111101011001101100101000 #
b00000000000000000000000000000000 $
b00100110011000111011010110001000 (
b00000000000000000000000000000000 *
1+
0,
b01111000010110010101000010110000 -
0.
b01111000010110010101000010110000 /
00
#941
1.
#946
b00100110011000111011010110001000 !
b01010001111101011001101100101000 "
b01010001111101011001101100101000 #
b00000000000000000000000000000000 $
b0010 '
b00100110011000111011010110001000 (
b00000000000000000000000000000000 *
1+
0,
b00101011100100011110010110100000 -
0.
b00101011100100011110010110100000 /
10
#951
1.
#956
b00100110011000111011010110001000 !
b01010001111101011001101100101000 "
b01010001111101011001101100101000 #
b00000000000000000000000000000000 $
b00100110011000111011010110001000 (
b00000000000000000000000000000000 *
1+
0,
b00101011100100011110010110100000 -
0.
b00101011100100011110010110100000 /
00
#961
1.
#966
b00100110011000111011010110001000 !
b01010001111101011001101100101000 "
b01010001111101011001101100101000 #
b00000000000000000000000000000000 $
b0100 '
b00100110011000111011010110001000 (
b00000000000000000000000000000000 *
1+
0,
b00000000011000011001000100001000 -
0.
b00000000011000011001000100001000 /
10
#971
1.
#976
b00100110011000111011010110001000 !
b01010001111101011001101100101000 "
b01010001111101011001101100101000 #
b00000000000000000000000000000000 $
b00100110011000111011010110001000 (
b00000000000000000000000000000000 *
1+
0,
b00000000011000011001000100001000 -
0.
b00000000011000011001000100001000 /
00
#981
1.
#986
b00100110011000111011010110001000 !
b01010001111101011001101100101000 "
b01010001111101011001101100101000 #
b00000000000000000000000000000000 $
b0101 '
b00100110011000111011010110001000 (
b00000000000000000000000000000000 *
1+
0,
b01110111111101111011111110101000 -
0.
b01110111111101111011111110101000 /
10
#991
1.
#996
b00100110011000111011010110001000 !
b01010001111101011001101100101000 "
b01010001111101011001101100101000 #
b00000000000000000000000000000000 $
b00100110011000111011010110001000 (
b00000000000000000000000000000000 *
1+
0,
b01110111111101111011111110101000 -
0.
b01110111111101111011111110101000 /
00
#1001
1.
#1006
b00100110011000111011010110001000 !
b01010001111101011001101100101000 "
b01010001111101011001101100101000 #
b00000000000000000000000000000000 $
b0111 '
b00100110011000111011010110001000 (
b00000000000000000000000000000000 *
1+
0,
b01110111100101100010111010100000 -
0.
b01110111100101100010111010100000 /
10
#1011
1.
