env_test/test_run_dir/ALU_should_vcd/Alu.vcd
$date
2023-11-23T08:01+0000
$end
$version
0.2
$end
$comment

$end
$timescale 1ns  $end
$scope module Alu $end
 $var wire 32 ! oprand2 $end
 $var wire 32 " oprand1 $end
 $var wire 32 # io_dataRead1 $end
 $var wire 32 $ io_dataRead2 $end
 $var wire 1 % resultBranch $end
 $var wire 1 & reset $end
 $var wire 4 ' io_bundleAluControl_ctrlOP $end
 $var wire 32 ( io_imm $end
 $var wire 1 ) io_resultBranch $end
 $var wire 32 * io_pc $end
 $var wire 1 + io_bundleAluControl_ctrlALUSrc $end
 $var wire 1 , io_bundleAluControl_ctrlJAL $end
 $var wire 32 - io_resultAlu $end
 $var wire 1 . clock $end
 $var wire 32 / resultAlu $end
 $var wire 1 0 io_bundleAluControl_ctrlSigned $end
 $var wire 1 1 io_bundleAluControl_ctrlBranch $end
$upscope $end
$enddefinitions $end
$dumpvars
00
01
b00000000000000000000000000000000 *
b00000000000000000000000000000000 -
b00000000000000000000000000000000 (
b00000000000000000000000000000000 #
b00000000000000000000000000000000 "
b00000000000000000000000000000000 $
b00000000000000000000000000000000 !
b0000 '
0%
0&
0)
0+
0,
b00000000000000000000000000000000 /
0.
$end
#0
1&
#1
1.
#6
10
b10111011111100100011010111011110 !
b10111011111100100011010111011110 "
b10111011111100100011010111011110 #
b00000000000000000000000000000000 $
0&
b10111011111100100011010111011110 (
b00000000000000000000000000000000 *
1+
0,
0.
#11
1.
#16
00
b10111011111100100011010111011110 !
b10111011111100100011010111011110 "
b10111011111100100011010111011110 #
b00000000000000000000000000000000 $
b10111011111100100011010111011110 (
b00000000000000000000000000000000 *
1+
0,
0.
#21
1.
#26
10
b10011011000100101111110110011000 !
b10111011111100100011010111011110 "
b10111011111100100011010111011110 #
b00000000000000000000000000000000 $
b10011011000100101111110110011000 (
b00000000000000000000000000000000 *
1+
0,
0.
#31
1.
#36
00
b10011011000100101111110110011000 !
b10111011111100100011010111011110 "
b10111011111100100011010111011110 #
b00000000000000000000000000000000 $
b10011011000100101111110110011000 (
b00000000000000000000000000000000 *
1+
0,
0.
#41
1.
#46
10
b01000010000101111110001101110111 !
b10111011111100100011010111011110 "
b10111011111100100011010111011110 #
b00000000000000000000000000000000 $
b01000010000101111110001101110111 (
b00000000000000000000000000000000 *
1+
0,
0.
#51
1.
#56
00
b01000010000101111110001101110111 !
b10111011111100100011010111011110 "
b10111011111100100011010111011110 #
b00000000000000000000000000000000 $
b01000010000101111110001101110111 (
b00000000000000000000000000000000 *
1+
0,
0.
#61
1.
#66
10
b00010100001100011011010011110000 !
b10111011111100100011010111011110 "
b10111011111100100011010111011110 #
b00000000000000000000000000000000 $
b00010100001100011011010011110000 (
b00000000000000000000000000000000 *
1+
0,
0.
#71
1.
#76
00
b00010100001100011011010011110000 !
b10111011111100100011010111011110 "
b10111011111100100011010111011110 #
b00000000000000000000000000000000 $
b00010100001100011011010011110000 (
b00000000000000000000000000000000 *
1+
0,
0.
#81
1.
#86
10
b10011011000010000010111100001100 !
b10111011111100100011010111011110 "
b10111011111100100011010111011110 #
b00000000000000000000000000000000 $
b10011011000010000010111100001100 (
b00000000000000000000000000000000 *
1+
0,
0.
#91
1.
#96
00
b10011011000010000010111100001100 !
b10111011111100100011010111011110 "
b10111011111100100011010111011110 #
b00000000000000000000000000000000 $
b10011011000010000010111100001100 (
b00000000000000000000000000000000 *
1+
0,
0.
#101
1.
#106
10
b10000110111110010011101000001111 !
b10111011111100100011010111011110 "
b10111011111100100011010111011110 #
b00000000000000000000000000000000 $
b10000110111110010011101000001111 (
b00000000000000000000000000000000 *
1+
0,
0.
#111
1.
#116
00
b10000110111110010011101000001111 !
b10111011111100100011010111011110 "
b10111011111100100011010111011110 #
b00000000000000000000000000000000 $
b10000110111110010011101000001111 (
b00000000000000000000000000000000 *
1+
0,
0.
#121
1.
#126
10
b11011101101111100101110111100001 !
b10111011111100100011010111011110 "
b10111011111100100011010111011110 #
b00000000000000000000000000000000 $
b11011101101111100101110111100001 (
b00000000000000000000000000000000 *
1+
0,
0.
#131
1.
#136
00
b11011101101111100101110111100001 !
b10111011111100100011010111011110 "
b10111011111100100011010111011110 #
b00000000000000000000000000000000 $
b11011101101111100101110111100001 (
b00000000000000000000000000000000 *
1+
0,
0.
#141
1.
#146
10
b00000010101101001110001111101010 !
b10111011111100100011010111011110 "
b10111011111100100011010111011110 #
b00000000000000000000000000000000 $
b00000010101101001110001111101010 (
b00000000000000000000000000000000 *
1+
0,
0.
#151
1.
#156
00
b00000010101101001110001111101010 !
b10111011111100100011010111011110 "
b10111011111100100011010111011110 #
b00000000000000000000000000000000 $
b00000010101101001110001111101010 (
b00000000000000000000000000000000 *
1+
0,
0.
#161
1.
#166
10
b11000011110010000110000001011100 !
b10111011111100100011010111011110 "
b10111011111100100011010111011110 #
b00000000000000000000000000000000 $
b11000011110010000110000001011100 (
b00000000000000000000000000000000 *
1+
0,
0.
#171
1.
#176
00
b11000011110010000110000001011100 !
b10111011111100100011010111011110 "
b10111011111100100011010111011110 #
b00000000000000000000000000000000 $
b11000011110010000110000001011100 (
b00000000000000000000000000000000 *
1+
0,
0.
#181
1.
#186
10
b00100001010011000010110100000010 !
b10111011111100100011010111011110 "
b10111011111100100011010111011110 #
b00000000000000000000000000000000 $
b00100001010011000010110100000010 (
b00000000000000000000000000000000 *
1+
0,
0.
#191
1.
#196
00
b00100001010011000010110100000010 !
b10111011111100100011010111011110 "
b10111011111100100011010111011110 #
b00000000000000000000000000000000 $
b00100001010011000010110100000010 (
b00000000000000000000000000000000 *
1+
0,
0.
#201
1.
#206
10
b10111011111100100011010111011110 !
b10011011000100101111110110011000 "
b10011011000100101111110110011000 #
b00000000000000000000000000000000 $
b10111011111100100011010111011110 (
b00000000000000000000000000000000 *
1+
0,
0.
#211
1.
#216
00
b10111011111100100011010111011110 !
b10011011000100101111110110011000 "
b10011011000100101111110110011000 #
b00000000000000000000000000000000 $
b10111011111100100011010111011110 (
b00000000000000000000000000000000 *
1+
0,
0.
#221
1.
#226
10
b10011011000100101111110110011000 !
b10011011000100101111110110011000 "
b10011011000100101111110110011000 #
b00000000000000000000000000000000 $
b10011011000100101111110110011000 (
b00000000000000000000000000000000 *
1+
0,
0.
#231
1.
#236
00
b10011011000100101111110110011000 !
b10011011000100101111110110011000 "
b10011011000100101111110110011000 #
b00000000000000000000000000000000 $
b10011011000100101111110110011000 (
b00000000000000000000000000000000 *
1+
0,
0.
#241
1.
#246
10
b01000010000101111110001101110111 !
b10011011000100101111110110011000 "
b10011011000100101111110110011000 #
b00000000000000000000000000000000 $
b01000010000101111110001101110111 (
b00000000000000000000000000000000 *
1+
0,
0.
#251
1.
#256
00
b01000010000101111110001101110111 !
b10011011000100101111110110011000 "
b10011011000100101111110110011000 #
b00000000000000000000000000000000 $
b01000010000101111110001101110111 (
b00000000000000000000000000000000 *
1+
0,
0.
#261
1.
#266
10
b00010100001100011011010011110000 !
b10011011000100101111110110011000 "
b10011011000100101111110110011000 #
b00000000000000000000000000000000 $
b00010100001100011011010011110000 (
b00000000000000000000000000000000 *
1+
0,
0.
#271
1.
#276
00
b00010100001100011011010011110000 !
b10011011000100101111110110011000 "
b10011011000100101111110110011000 #
b00000000000000000000000000000000 $
b00010100001100011011010011110000 (
b00000000000000000000000000000000 *
1+
0,
0.
#281
1.
#286
10
b10011011000010000010111100001100 !
b10011011000100101111110110011000 "
b10011011000100101111110110011000 #
b00000000000000000000000000000000 $
b10011011000010000010111100001100 (
b00000000000000000000000000000000 *
1+
0,
0.
#291
1.
#296
00
b10011011000010000010111100001100 !
b10011011000100101111110110011000 "
b10011011000100101111110110011000 #
b00000000000000000000000000000000 $
b10011011000010000010111100001100 (
b00000000000000000000000000000000 *
1+
0,
0.
#301
1.
#306
10
b10000110111110010011101000001111 !
b10011011000100101111110110011000 "
b10011011000100101111110110011000 #
b00000000000000000000000000000000 $
b10000110111110010011101000001111 (
b00000000000000000000000000000000 *
1+
0,
0.
#311
1.
#316
00
b10000110111110010011101000001111 !
b10011011000100101111110110011000 "
b10011011000100101111110110011000 #
b00000000000000000000000000000000 $
b10000110111110010011101000001111 (
b00000000000000000000000000000000 *
1+
0,
0.
#321
1.
#326
10
b11011101101111100101110111100001 !
b10011011000100101111110110011000 "
b10011011000100101111110110011000 #
b00000000000000000000000000000000 $
b11011101101111100101110111100001 (
b00000000000000000000000000000000 *
1+
0,
0.
#331
1.
#336
00
b11011101101111100101110111100001 !
b10011011000100101111110110011000 "
b10011011000100101111110110011000 #
b00000000000000000000000000000000 $
b11011101101111100101110111100001 (
b00000000000000000000000000000000 *
1+
0,
0.
#341
1.
#346
10
b00000010101101001110001111101010 !
b10011011000100101111110110011000 "
b10011011000100101111110110011000 #
b00000000000000000000000000000000 $
b00000010101101001110001111101010 (
b00000000000000000000000000000000 *
1+
0,
0.
#351
1.
#356
00
b00000010101101001110001111101010 !
b10011011000100101111110110011000 "
b10011011000100101111110110011000 #
b00000000000000000000000000000000 $
b00000010101101001110001111101010 (
b00000000000000000000000000000000 *
1+
0,
0.
#361
1.
#366
10
b11000011110010000110000001011100 !
b10011011000100101111110110011000 "
b10011011000100101111110110011000 #
b00000000000000000000000000000000 $
b11000011110010000110000001011100 (
b00000000000000000000000000000000 *
1+
0,
0.
#371
1.
#376
00
b11000011110010000110000001011100 !
b10011011000100101111110110011000 "
b10011011000100101111110110011000 #
b00000000000000000000000000000000 $
b11000011110010000110000001011100 (
b00000000000000000000000000000000 *
1+
0,
0.
#381
1.
#386
10
b00100001010011000010110100000010 !
b10011011000100101111110110011000 "
b10011011000100101111110110011000 #
b00000000000000000000000000000000 $
b00100001010011000010110100000010 (
b00000000000000000000000000000000 *
1+
0,
0.
#391
1.
#396
00
b00100001010011000010110100000010 !
b10011011000100101111110110011000 "
b10011011000100101111110110011000 #
b00000000000000000000000000000000 $
b00100001010011000010110100000010 (
b00000000000000000000000000000000 *
1+
0,
0.
#401
1.
#406
10
b10111011111100100011010111011110 !
b01000010000101111110001101110111 "
b01000010000101111110001101110111 #
b00000000000000000000000000000000 $
b10111011111100100011010111011110 (
b00000000000000000000000000000000 *
1+
0,
0.
#411
1.
#416
00
b10111011111100100011010111011110 !
b01000010000101111110001101110111 "
b01000010000101111110001101110111 #
b00000000000000000000000000000000 $
b10111011111100100011010111011110 (
b00000000000000000000000000000000 *
1+
0,
0.
#421
1.
#426
10
b10011011000100101111110110011000 !
b01000010000101111110001101110111 "
b01000010000101111110001101110111 #
b00000000000000000000000000000000 $
b10011011000100101111110110011000 (
b00000000000000000000000000000000 *
1+
0,
0.
#431
1.
#436
00
b10011011000100101111110110011000 !
b01000010000101111110001101110111 "
b01000010000101111110001101110111 #
b00000000000000000000000000000000 $
b10011011000100101111110110011000 (
b00000000000000000000000000000000 *
1+
0,
0.
#441
1.
#446
10
b01000010000101111110001101110111 !
b01000010000101111110001101110111 "
b01000010000101111110001101110111 #
b00000000000000000000000000000000 $
b01000010000101111110001101110111 (
b00000000000000000000000000000000 *
1+
0,
0.
#451
1.
#456
00
b01000010000101111110001101110111 !
b01000010000101111110001101110111 "
b01000010000101111110001101110111 #
b00000000000000000000000000000000 $
b01000010000101111110001101110111 (
b00000000000000000000000000000000 *
1+
0,
0.
#461
1.
#466
10
b00010100001100011011010011110000 !
b01000010000101111110001101110111 "
b01000010000101111110001101110111 #
b00000000000000000000000000000000 $
b00010100001100011011010011110000 (
b00000000000000000000000000000000 *
1+
0,
0.
#471
1.
#476
00
b00010100001100011011010011110000 !
b01000010000101111110001101110111 "
b01000010000101111110001101110111 #
b00000000000000000000000000000000 $
b00010100001100011011010011110000 (
b00000000000000000000000000000000 *
1+
0,
0.
#481
1.
#486
10
b10011011000010000010111100001100 !
b01000010000101111110001101110111 "
b01000010000101111110001101110111 #
b00000000000000000000000000000000 $
b10011011000010000010111100001100 (
b00000000000000000000000000000000 *
1+
0,
0.
#491
1.
#496
00
b10011011000010000010111100001100 !
b01000010000101111110001101110111 "
b01000010000101111110001101110111 #
b00000000000000000000000000000000 $
b10011011000010000010111100001100 (
b00000000000000000000000000000000 *
1+
0,
0.
#501
1.
#506
10
b10000110111110010011101000001111 !
b01000010000101111110001101110111 "
b01000010000101111110001101110111 #
b00000000000000000000000000000000 $
b10000110111110010011101000001111 (
b00000000000000000000000000000000 *
1+
0,
0.
#511
1.
#516
00
b10000110111110010011101000001111 !
b01000010000101111110001101110111 "
b01000010000101111110001101110111 #
b00000000000000000000000000000000 $
b10000110111110010011101000001111 (
b00000000000000000000000000000000 *
1+
0,
0.
#521
1.
#526
10
b11011101101111100101110111100001 !
b01000010000101111110001101110111 "
b01000010000101111110001101110111 #
b00000000000000000000000000000000 $
b11011101101111100101110111100001 (
b00000000000000000000000000000000 *
1+
0,
0.
#531
1.
#536
00
b11011101101111100101110111100001 !
b01000010000101111110001101110111 "
b01000010000101111110001101110111 #
b00000000000000000000000000000000 $
b11011101101111100101110111100001 (
b00000000000000000000000000000000 *
1+
0,
0.
#541
1.
#546
10
b00000010101101001110001111101010 !
b01000010000101111110001101110111 "
b01000010000101111110001101110111 #
b00000000000000000000000000000000 $
b00000010101101001110001111101010 (
b00000000000000000000000000000000 *
1+
0,
0.
#551
1.
#556
00
b00000010101101001110001111101010 !
b01000010000101111110001101110111 "
b01000010000101111110001101110111 #
b00000000000000000000000000000000 $
b00000010101101001110001111101010 (
b00000000000000000000000000000000 *
1+
0,
0.
#561
1.
#566
10
b11000011110010000110000001011100 !
b01000010000101111110001101110111 "
b01000010000101111110001101110111 #
b00000000000000000000000000000000 $
b11000011110010000110000001011100 (
b00000000000000000000000000000000 *
1+
0,
0.
#571
1.
#576
00
b11000011110010000110000001011100 !
b01000010000101111110001101110111 "
b01000010000101111110001101110111 #
b00000000000000000000000000000000 $
b11000011110010000110000001011100 (
b00000000000000000000000000000000 *
1+
0,
0.
#581
1.
#586
10
b00100001010011000010110100000010 !
b01000010000101111110001101110111 "
b01000010000101111110001101110111 #
b00000000000000000000000000000000 $
b00100001010011000010110100000010 (
b00000000000000000000000000000000 *
1+
0,
0.
#591
1.
#596
00
b00100001010011000010110100000010 !
b01000010000101111110001101110111 "
b01000010000101111110001101110111 #
b00000000000000000000000000000000 $
b00100001010011000010110100000010 (
b00000000000000000000000000000000 *
1+
0,
0.
#601
1.
#606
10
b10111011111100100011010111011110 !
b00010100001100011011010011110000 "
b00010100001100011011010011110000 #
b00000000000000000000000000000000 $
b10111011111100100011010111011110 (
b00000000000000000000000000000000 *
1+
0,
0.
#611
1.
#616
00
b10111011111100100011010111011110 !
b00010100001100011011010011110000 "
b00010100001100011011010011110000 #
b00000000000000000000000000000000 $
b10111011111100100011010111011110 (
b00000000000000000000000000000000 *
1+
0,
0.
#621
1.
#626
10
b10011011000100101111110110011000 !
b00010100001100011011010011110000 "
b00010100001100011011010011110000 #
b00000000000000000000000000000000 $
b10011011000100101111110110011000 (
b00000000000000000000000000000000 *
1+
0,
0.
#631
1.
#636
00
b10011011000100101111110110011000 !
b00010100001100011011010011110000 "
b00010100001100011011010011110000 #
b00000000000000000000000000000000 $
b10011011000100101111110110011000 (
b00000000000000000000000000000000 *
1+
0,
0.
#641
1.
#646
10
b01000010000101111110001101110111 !
b00010100001100011011010011110000 "
b00010100001100011011010011110000 #
b00000000000000000000000000000000 $
b01000010000101111110001101110111 (
b00000000000000000000000000000000 *
1+
0,
0.
#651
1.
#656
00
b01000010000101111110001101110111 !
b00010100001100011011010011110000 "
b00010100001100011011010011110000 #
b00000000000000000000000000000000 $
b01000010000101111110001101110111 (
b00000000000000000000000000000000 *
1+
0,
0.
#661
1.
#666
10
b00010100001100011011010011110000 !
b00010100001100011011010011110000 "
b00010100001100011011010011110000 #
b00000000000000000000000000000000 $
b00010100001100011011010011110000 (
b00000000000000000000000000000000 *
1+
0,
0.
#671
1.
#676
00
b00010100001100011011010011110000 !
b00010100001100011011010011110000 "
b00010100001100011011010011110000 #
b00000000000000000000000000000000 $
b00010100001100011011010011110000 (
b00000000000000000000000000000000 *
1+
0,
0.
#681
1.
#686
10
b10011011000010000010111100001100 !
b00010100001100011011010011110000 "
b00010100001100011011010011110000 #
b00000000000000000000000000000000 $
b10011011000010000010111100001100 (
b00000000000000000000000000000000 *
1+
0,
0.
#691
1.
#696
00
b10011011000010000010111100001100 !
b00010100001100011011010011110000 "
b00010100001100011011010011110000 #
b00000000000000000000000000000000 $
b10011011000010000010111100001100 (
b00000000000000000000000000000000 *
1+
0,
0.
#701
1.
#706
10
b10000110111110010011101000001111 !
b00010100001100011011010011110000 "
b00010100001100011011010011110000 #
b00000000000000000000000000000000 $
b10000110111110010011101000001111 (
b00000000000000000000000000000000 *
1+
0,
0.
#711
1.
#716
00
b10000110111110010011101000001111 !
b00010100001100011011010011110000 "
b00010100001100011011010011110000 #
b00000000000000000000000000000000 $
b10000110111110010011101000001111 (
b00000000000000000000000000000000 *
1+
0,
0.
#721
1.
#726
10
b11011101101111100101110111100001 !
b00010100001100011011010011110000 "
b00010100001100011011010011110000 #
b00000000000000000000000000000000 $
b11011101101111100101110111100001 (
b00000000000000000000000000000000 *
1+
0,
0.
#731
1.
#736
00
b11011101101111100101110111100001 !
b00010100001100011011010011110000 "
b00010100001100011011010011110000 #
b00000000000000000000000000000000 $
b11011101101111100101110111100001 (
b00000000000000000000000000000000 *
1+
0,
0.
#741
1.
#746
10
b00000010101101001110001111101010 !
b00010100001100011011010011110000 "
b00010100001100011011010011110000 #
b00000000000000000000000000000000 $
b00000010101101001110001111101010 (
b00000000000000000000000000000000 *
1+
0,
0.
#751
1.
#756
00
b00000010101101001110001111101010 !
b00010100001100011011010011110000 "
b00010100001100011011010011110000 #
b00000000000000000000000000000000 $
b00000010101101001110001111101010 (
b00000000000000000000000000000000 *
1+
0,
0.
#761
1.
#766
10
b11000011110010000110000001011100 !
b00010100001100011011010011110000 "
b00010100001100011011010011110000 #
b00000000000000000000000000000000 $
b11000011110010000110000001011100 (
b00000000000000000000000000000000 *
1+
0,
0.
#771
1.
#776
00
b11000011110010000110000001011100 !
b00010100001100011011010011110000 "
b00010100001100011011010011110000 #
b00000000000000000000000000000000 $
b11000011110010000110000001011100 (
b00000000000000000000000000000000 *
1+
0,
0.
#781
1.
#786
10
b00100001010011000010110100000010 !
b00010100001100011011010011110000 "
b00010100001100011011010011110000 #
b00000000000000000000000000000000 $
b00100001010011000010110100000010 (
b00000000000000000000000000000000 *
1+
0,
0.
#791
1.
#796
00
b00100001010011000010110100000010 !
b00010100001100011011010011110000 "
b00010100001100011011010011110000 #
b00000000000000000000000000000000 $
b00100001010011000010110100000010 (
b00000000000000000000000000000000 *
1+
0,
0.
#801
1.
#806
10
b10111011111100100011010111011110 !
b10011011000010000010111100001100 "
b10011011000010000010111100001100 #
b00000000000000000000000000000000 $
b10111011111100100011010111011110 (
b00000000000000000000000000000000 *
1+
0,
0.
#811
1.
#816
00
b10111011111100100011010111011110 !
b10011011000010000010111100001100 "
b10011011000010000010111100001100 #
b00000000000000000000000000000000 $
b10111011111100100011010111011110 (
b00000000000000000000000000000000 *
1+
0,
0.
#821
1.
#826
10
b10011011000100101111110110011000 !
b10011011000010000010111100001100 "
b10011011000010000010111100001100 #
b00000000000000000000000000000000 $
b10011011000100101111110110011000 (
b00000000000000000000000000000000 *
1+
0,
0.
#831
1.
#836
00
b10011011000100101111110110011000 !
b10011011000010000010111100001100 "
b10011011000010000010111100001100 #
b00000000000000000000000000000000 $
b10011011000100101111110110011000 (
b00000000000000000000000000000000 *
1+
0,
0.
#841
1.
#846
10
b01000010000101111110001101110111 !
b10011011000010000010111100001100 "
b10011011000010000010111100001100 #
b00000000000000000000000000000000 $
b01000010000101111110001101110111 (
b00000000000000000000000000000000 *
1+
0,
0.
#851
1.
#856
00
b01000010000101111110001101110111 !
b10011011000010000010111100001100 "
b10011011000010000010111100001100 #
b00000000000000000000000000000000 $
b01000010000101111110001101110111 (
b00000000000000000000000000000000 *
1+
0,
0.
#861
1.
#866
10
b00010100001100011011010011110000 !
b10011011000010000010111100001100 "
b10011011000010000010111100001100 #
b00000000000000000000000000000000 $
b00010100001100011011010011110000 (
b00000000000000000000000000000000 *
1+
0,
0.
#871
1.
#876
00
b00010100001100011011010011110000 !
b10011011000010000010111100001100 "
b10011011000010000010111100001100 #
b00000000000000000000000000000000 $
b00010100001100011011010011110000 (
b00000000000000000000000000000000 *
1+
0,
0.
#881
1.
#886
10
b10011011000010000010111100001100 !
b10011011000010000010111100001100 "
b10011011000010000010111100001100 #
b00000000000000000000000000000000 $
b10011011000010000010111100001100 (
b00000000000000000000000000000000 *
1+
0,
0.
#891
1.
#896
00
b10011011000010000010111100001100 !
b10011011000010000010111100001100 "
b10011011000010000010111100001100 #
b00000000000000000000000000000000 $
b10011011000010000010111100001100 (
b00000000000000000000000000000000 *
1+
0,
0.
#901
1.
#906
10
b10000110111110010011101000001111 !
b10011011000010000010111100001100 "
b10011011000010000010111100001100 #
b00000000000000000000000000000000 $
b10000110111110010011101000001111 (
b00000000000000000000000000000000 *
1+
0,
0.
#911
1.
#916
00
b10000110111110010011101000001111 !
b10011011000010000010111100001100 "
b10011011000010000010111100001100 #
b00000000000000000000000000000000 $
b10000110111110010011101000001111 (
b00000000000000000000000000000000 *
1+
0,
0.
#921
1.
#926
10
b11011101101111100101110111100001 !
b10011011000010000010111100001100 "
b10011011000010000010111100001100 #
b00000000000000000000000000000000 $
b11011101101111100101110111100001 (
b00000000000000000000000000000000 *
1+
0,
0.
#931
1.
#936
00
b11011101101111100101110111100001 !
b10011011000010000010111100001100 "
b10011011000010000010111100001100 #
b00000000000000000000000000000000 $
b11011101101111100101110111100001 (
b00000000000000000000000000000000 *
1+
0,
0.
#941
1.
#946
10
b00000010101101001110001111101010 !
b10011011000010000010111100001100 "
b10011011000010000010111100001100 #
b00000000000000000000000000000000 $
b00000010101101001110001111101010 (
b00000000000000000000000000000000 *
1+
0,
0.
#951
1.
#956
00
b00000010101101001110001111101010 !
b10011011000010000010111100001100 "
b10011011000010000010111100001100 #
b00000000000000000000000000000000 $
b00000010101101001110001111101010 (
b00000000000000000000000000000000 *
1+
0,
0.
#961
1.
#966
10
b11000011110010000110000001011100 !
b10011011000010000010111100001100 "
b10011011000010000010111100001100 #
b00000000000000000000000000000000 $
b11000011110010000110000001011100 (
b00000000000000000000000000000000 *
1+
0,
0.
#971
1.
#976
00
b11000011110010000110000001011100 !
b10011011000010000010111100001100 "
b10011011000010000010111100001100 #
b00000000000000000000000000000000 $
b11000011110010000110000001011100 (
b00000000000000000000000000000000 *
1+
0,
0.
#981
1.
#986
10
b00100001010011000010110100000010 !
b10011011000010000010111100001100 "
b10011011000010000010111100001100 #
b00000000000000000000000000000000 $
b00100001010011000010110100000010 (
b00000000000000000000000000000000 *
1+
0,
0.
#991
1.
#996
00
b00100001010011000010110100000010 !
b10011011000010000010111100001100 "
b10011011000010000010111100001100 #
b00000000000000000000000000000000 $
b00100001010011000010110100000010 (
b00000000000000000000000000000000 *
1+
0,
0.
#1001
1.
#1006
10
b10111011111100100011010111011110 !
b10000110111110010011101000001111 "
b10000110111110010011101000001111 #
b00000000000000000000000000000000 $
b10111011111100100011010111011110 (
b00000000000000000000000000000000 *
1+
0,
0.
#1011
1.
#1016
00
b10111011111100100011010111011110 !
b10000110111110010011101000001111 "
b10000110111110010011101000001111 #
b00000000000000000000000000000000 $
b10111011111100100011010111011110 (
b00000000000000000000000000000000 *
1+
0,
0.
#1021
1.
#1026
10
b10011011000100101111110110011000 !
b10000110111110010011101000001111 "
b10000110111110010011101000001111 #
b00000000000000000000000000000000 $
b10011011000100101111110110011000 (
b00000000000000000000000000000000 *
1+
0,
0.
#1031
1.
#1036
00
b10011011000100101111110110011000 !
b10000110111110010011101000001111 "
b10000110111110010011101000001111 #
b00000000000000000000000000000000 $
b10011011000100101111110110011000 (
b00000000000000000000000000000000 *
1+
0,
0.
#1041
1.
#1046
10
b01000010000101111110001101110111 !
b10000110111110010011101000001111 "
b10000110111110010011101000001111 #
b00000000000000000000000000000000 $
b01000010000101111110001101110111 (
b00000000000000000000000000000000 *
1+
0,
0.
#1051
1.
#1056
00
b01000010000101111110001101110111 !
b10000110111110010011101000001111 "
b10000110111110010011101000001111 #
b00000000000000000000000000000000 $
b01000010000101111110001101110111 (
b00000000000000000000000000000000 *
1+
0,
0.
#1061
1.
#1066
10
b00010100001100011011010011110000 !
b10000110111110010011101000001111 "
b10000110111110010011101000001111 #
b00000000000000000000000000000000 $
b00010100001100011011010011110000 (
b00000000000000000000000000000000 *
1+
0,
0.
#1071
1.
#1076
00
b00010100001100011011010011110000 !
b10000110111110010011101000001111 "
b10000110111110010011101000001111 #
b00000000000000000000000000000000 $
b00010100001100011011010011110000 (
b00000000000000000000000000000000 *
1+
0,
0.
#1081
1.
#1086
10
b10011011000010000010111100001100 !
b10000110111110010011101000001111 "
b10000110111110010011101000001111 #
b00000000000000000000000000000000 $
b10011011000010000010111100001100 (
b00000000000000000000000000000000 *
1+
0,
0.
#1091
1.
#1096
00
b10011011000010000010111100001100 !
b10000110111110010011101000001111 "
b10000110111110010011101000001111 #
b00000000000000000000000000000000 $
b10011011000010000010111100001100 (
b00000000000000000000000000000000 *
1+
0,
0.
#1101
1.
#1106
10
b10000110111110010011101000001111 !
b10000110111110010011101000001111 "
b10000110111110010011101000001111 #
b00000000000000000000000000000000 $
b10000110111110010011101000001111 (
b00000000000000000000000000000000 *
1+
0,
0.
#1111
1.
#1116
00
b10000110111110010011101000001111 !
b10000110111110010011101000001111 "
b10000110111110010011101000001111 #
b00000000000000000000000000000000 $
b10000110111110010011101000001111 (
b00000000000000000000000000000000 *
1+
0,
0.
#1121
1.
#1126
10
b11011101101111100101110111100001 !
b10000110111110010011101000001111 "
b10000110111110010011101000001111 #
b00000000000000000000000000000000 $
b11011101101111100101110111100001 (
b00000000000000000000000000000000 *
1+
0,
0.
#1131
1.
#1136
00
b11011101101111100101110111100001 !
b10000110111110010011101000001111 "
b10000110111110010011101000001111 #
b00000000000000000000000000000000 $
b11011101101111100101110111100001 (
b00000000000000000000000000000000 *
1+
0,
0.
#1141
1.
#1146
10
b00000010101101001110001111101010 !
b10000110111110010011101000001111 "
b10000110111110010011101000001111 #
b00000000000000000000000000000000 $
b00000010101101001110001111101010 (
b00000000000000000000000000000000 *
1+
0,
0.
#1151
1.
#1156
00
b00000010101101001110001111101010 !
b10000110111110010011101000001111 "
b10000110111110010011101000001111 #
b00000000000000000000000000000000 $
b00000010101101001110001111101010 (
b00000000000000000000000000000000 *
1+
0,
0.
#1161
1.
#1166
10
b11000011110010000110000001011100 !
b10000110111110010011101000001111 "
b10000110111110010011101000001111 #
b00000000000000000000000000000000 $
b11000011110010000110000001011100 (
b00000000000000000000000000000000 *
1+
0,
0.
#1171
1.
#1176
00
b11000011110010000110000001011100 !
b10000110111110010011101000001111 "
b10000110111110010011101000001111 #
b00000000000000000000000000000000 $
b11000011110010000110000001011100 (
b00000000000000000000000000000000 *
1+
0,
0.
#1181
1.
#1186
10
b00100001010011000010110100000010 !
b10000110111110010011101000001111 "
b10000110111110010011101000001111 #
b00000000000000000000000000000000 $
b00100001010011000010110100000010 (
b00000000000000000000000000000000 *
1+
0,
0.
#1191
1.
#1196
00
b00100001010011000010110100000010 !
b10000110111110010011101000001111 "
b10000110111110010011101000001111 #
b00000000000000000000000000000000 $
b00100001010011000010110100000010 (
b00000000000000000000000000000000 *
1+
0,
0.
#1201
1.
#1206
10
b10111011111100100011010111011110 !
b11011101101111100101110111100001 "
b11011101101111100101110111100001 #
b00000000000000000000000000000000 $
b10111011111100100011010111011110 (
b00000000000000000000000000000000 *
1+
0,
0.
#1211
1.
#1216
00
b10111011111100100011010111011110 !
b11011101101111100101110111100001 "
b11011101101111100101110111100001 #
b00000000000000000000000000000000 $
b10111011111100100011010111011110 (
b00000000000000000000000000000000 *
1+
0,
0.
#1221
1.
#1226
10
b10011011000100101111110110011000 !
b11011101101111100101110111100001 "
b11011101101111100101110111100001 #
b00000000000000000000000000000000 $
b10011011000100101111110110011000 (
b00000000000000000000000000000000 *
1+
0,
0.
#1231
1.
#1236
00
b10011011000100101111110110011000 !
b11011101101111100101110111100001 "
b11011101101111100101110111100001 #
b00000000000000000000000000000000 $
b10011011000100101111110110011000 (
b00000000000000000000000000000000 *
1+
0,
0.
#1241
1.
#1246
10
b01000010000101111110001101110111 !
b11011101101111100101110111100001 "
b11011101101111100101110111100001 #
b00000000000000000000000000000000 $
b01000010000101111110001101110111 (
b00000000000000000000000000000000 *
1+
0,
0.
#1251
1.
#1256
00
b01000010000101111110001101110111 !
b11011101101111100101110111100001 "
b11011101101111100101110111100001 #
b00000000000000000000000000000000 $
b01000010000101111110001101110111 (
b00000000000000000000000000000000 *
1+
0,
0.
#1261
1.
#1266
10
b00010100001100011011010011110000 !
b11011101101111100101110111100001 "
b11011101101111100101110111100001 #
b00000000000000000000000000000000 $
b00010100001100011011010011110000 (
b00000000000000000000000000000000 *
1+
0,
0.
#1271
1.
#1276
00
b00010100001100011011010011110000 !
b11011101101111100101110111100001 "
b11011101101111100101110111100001 #
b00000000000000000000000000000000 $
b00010100001100011011010011110000 (
b00000000000000000000000000000000 *
1+
0,
0.
#1281
1.
#1286
10
b10011011000010000010111100001100 !
b11011101101111100101110111100001 "
b11011101101111100101110111100001 #
b00000000000000000000000000000000 $
b10011011000010000010111100001100 (
b00000000000000000000000000000000 *
1+
0,
0.
#1291
1.
#1296
00
b10011011000010000010111100001100 !
b11011101101111100101110111100001 "
b11011101101111100101110111100001 #
b00000000000000000000000000000000 $
b10011011000010000010111100001100 (
b00000000000000000000000000000000 *
1+
0,
0.
#1301
1.
