mytest_a/test_run_dir/ALU_should_wave/Alu.vcd
$version Generated by VerilatedVcd $end
$timescale 1ps $end
 $scope module TOP $end
  $var wire 1 # clock $end
  $var wire 1 $ reset $end
  $var wire 1 % io_bundleAluControl_ctrlALUSrc $end
  $var wire 1 & io_bundleAluControl_ctrlJAL $end
  $var wire 4 ' io_bundleAluControl_ctrlOP [3:0] $end
  $var wire 1 ( io_bundleAluControl_ctrlSigned $end
  $var wire 1 ) io_bundleAluControl_ctrlBranch $end
  $var wire 32 * io_dataRead1 [31:0] $end
  $var wire 32 + io_dataRead2 [31:0] $end
  $var wire 32 , io_imm [31:0] $end
  $var wire 32 - io_pc [31:0] $end
  $var wire 1 . io_resultBranch $end
  $var wire 32 / io_resultAlu [31:0] $end
  $scope module Alu $end
   $var wire 1 # clock $end
   $var wire 1 $ reset $end
   $var wire 1 % io_bundleAluControl_ctrlALUSrc $end
   $var wire 1 & io_bundleAluControl_ctrlJAL $end
   $var wire 4 ' io_bundleAluControl_ctrlOP [3:0] $end
   $var wire 1 ( io_bundleAluControl_ctrlSigned $end
   $var wire 1 ) io_bundleAluControl_ctrlBranch $end
   $var wire 32 * io_dataRead1 [31:0] $end
   $var wire 32 + io_dataRead2 [31:0] $end
   $var wire 32 , io_imm [31:0] $end
   $var wire 32 - io_pc [31:0] $end
   $var wire 1 . io_resultBranch $end
   $var wire 32 / io_resultAlu [31:0] $end
   $var wire 32 0 oprand1 [31:0] $end
   $var wire 32 1 oprand2 [31:0] $end
  $upscope $end
 $upscope $end
$enddefinitions $end


#0
0#
1$
0%
0&
b0000 '
0(
0)
b00000000000000000000000000000000 *
b00000000000000000000000000000000 +
b00000000000000000000000000000000 ,
b00000000000000000000000000000000 -
0.
b00000000000000000000000000000000 /
b00000000000000000000000000000000 0
b00000000000000000000000000000000 1
#1
1#
#2
0#
0$
1%
1(
b01010001111101011001101100101000 *
b01010001111101011001101100101000 ,
b01010001111101011001101100101000 0
b01010001111101011001101100101000 1
#3
1#
#4
0#
0(
#5
1#
#6
0#
b0001 '
1(
b10100011111010110011011001010000 /
#7
1#
#8
0#
0(
#9
1#
#10
0#
b0010 '
1(
b00000000000000000000000000000000 /
#11
1#
#12
0#
0(
#13
1#
#14
0#
b0100 '
1(
b01010001111101011001101100101000 /
#15
1#
#16
0#
0(
#17
1#
#18
0#
b0101 '
1(
#19
1#
#20
0#
0(
#21
1#
#22
0#
b0111 '
1(
b00000000000000000000000000000000 /
#23
1#
#24
0#
0(
#25
1#
#26
0#
b1000 '
1(
b11110101100110110010100000000000 /
#27
1#
#28
0#
0(
#29
1#
#30
0#
b1001 '
1(
b00000000010100011111010110011011 /
#31
1#
#32
0#
0(
#33
1#
#34
0#
b1011 '
1(
#35
1#
#36
0#
0(
#37
1#
#38
0#
b0000 '
1(
b01011111100000101111011101110100 ,
b00000000000000000000000000000000 /
b01011111100000101111011101110100 1
#39
1#
#40
0#
0(
#41
1#
#42
0#
b0001 '
1(
b10110001011110001001001010011100 /
#43
1#
#44
0#
0(
#45
1#
#46
0#
b0010 '
1(
b11110010011100101010001110110100 /
#47
1#
#48
0#
0(
#49
1#
#50
0#
b0100 '
1(
b01010001100000001001001100100000 /
#51
1#
#52
0#
0(
#53
1#
#54
0#
b0101 '
1(
b01011111111101111111111101111100 /
#55
1#
#56
0#
0(
#57
1#
#58
0#
b0111 '
1(
b00001110011101110110110001011100 /
#59
1#
#60
0#
0(
#61
1#
#62
0#
b1000 '
1(
b10110010100000000000000000000000 /
#63
1#
#64
0#
0(
#65
1#
#66
0#
b1001 '
1(
b00000000000000000000010100011111 /
#67
1#
#68
0#
0(
#69
1#
#70
0#
b1011 '
1(
#71
1#
#72
0#
0(
#73
1#
#74
0#
b0000 '
1(
b01000010001011111111001001110001 ,
b00000000000000000000000000000000 /
b01000010001011111111001001110001 1
#75
1#
#76
0#
0(
#77
1#
#78
0#
b0001 '
1(
b10010100001001011000110110011001 /
#79
1#
#80
0#
0(
#81
1#
#82
0#
b0010 '
1(
b00001111110001011010100010110111 /
#83
1#
#84
0#
0(
#85
1#
#86
0#
b0100 '
1(
b01000000001001011001001000100000 /
#87
1#
#88
0#
0(
#89
1#
#90
0#
b0101 '
1(
b01010011111111111111101101111001 /
#91
1#
#92
0#
0(
#93
1#
#94
0#
b0111 '
1(
b00010011110110100110100101011001 /
#95
1#
#96
0#
0(
#97
1#
#98
0#
b1000 '
1(
b00110110010100000000000000000000 /
#99
1#
#100
0#
0(
#101
1#
#102
0#
b1001 '
1(
b00000000000000000010100011111010 /
#103
1#
#104
0#
0(
#105
1#
#106
0#
b1011 '
1(
#107
1#
#108
0#
0(
#109
1#
#110
0#
b0000 '
1(
b11001000000101011000100010101101 ,
b00000000000000000000000000000000 /
b11001000000101011000100010101101 1
#111
1#
#112
0#
0(
#113
1#
#114
0#
b0001 '
1(
b00011010000010110010001111010101 /
#115
1#
#116
0#
0(
#117
1#
#118
0#
b0010 '
1(
b10001001111000000001001001111011 /
#119
1#
#120
0#
0(
#121
1#
#122
0#
b0100 '
1(
b01000000000101011000100000101000 /
#123
1#
#124
0#
0(
#125
1#
#126
0#
b0101 '
1(
b11011001111101011001101110101101 /
#127
1#
#128
0#
0(
#129
1#
#130
0#
b0111 '
1(
b10011001111000000001001110000101 /
#131
1#
#132
0#
0(
#133
1#
#134
0#
b1000 '
1(
b10110011011001010000000000000000 /
#135
1#
#136
0#
0(
#137
1#
#138
0#
b1001 '
1(
b00000000000000101000111110101100 /
#139
1#
#140
0#
0(
#141
1#
#142
0#
b1011 '
1(
#143
1#
#144
0#
0(
#145
1#
#146
0#
b0000 '
1(
b01101111111101001101011111001100 ,
b00000000000000000000000000000000 /
b01101111111101001101011111001100 1
#147
1#
#148
0#
0(
#149
1#
#150
0#
b0001 '
1(
b11000001111010100111001011110100 /
#151
1#
#152
0#
0(
#153
1#
#154
0#
b0010 '
1(
b11100010000000001100001101011100 /
#155
1#
#156
0#
0(
#157
1#
#158
0#
b0100 '
1(
b01000001111101001001001100001000 /
#159
1#
#160
0#
0(
#161
1#
#162
0#
b0101 '
1(
b01111111111101011101111111101100 /
#163
1#
#164
0#
0(
#165
1#
#166
0#
b0111 '
1(
b00111110000000010100110011100100 /
#167
1#
#168
0#
0(
#169
1#
#170
0#
b1000 '
1(
b01011001101100101000000000000000 /
#171
1#
#172
0#
0(
#173
1#
#174
0#
b1001 '
1(
b00000000000001010001111101011001 /
#175
1#
#176
0#
0(
#177
1#
#178
0#
b1011 '
1(
#179
1#
#180
0#
0(
#181
1#
#182
0#
b0000 '
1(
b00100110011000111011010110001000 ,
b00000000000000000000000000000000 /
b00100110011000111011010110001000 1
#183
1#
#184
0#
0(
#185
1#
#186
0#
b0001 '
1(
b01111000010110010101000010110000 /
#187
1#
#188
0#
0(
#189
1#
#190
0#
b0010 '
1(
b00101011100100011110010110100000 /
#191
1#
#192
0#
0(
#193
1#
#194
0#
b0100 '
1(
b00000000011000011001000100001000 /
#195
1#
#196
0#
0(
#197
1#
#198
0#
b0101 '
1(
b01110111111101111011111110101000 /
#199
1#
#200
0#
0(
#201
1#
#202
0#
b0111 '
1(
b01110111100101100010111010100000 /
#203
1#
#204
0#
0(
#205
1#
#206
0#
b1000 '
1(
b11110101100110110010100000000000 /
#207
1#
#208
0#
0(
#209
1#
#210
0#
b1001 '
1(
b00000000010100011111010110011011 /
#211
1#
#212
0#
0(
#213
1#
#214
0#
b1011 '
1(
#215
1#
#216
0#
0(
#217
1#
#218
0#
b0000 '
1(
b10111000010000101101111010101011 ,
b00000000000000000000000000000000 /
b10111000010000101101111010101011 1
#219
1#
#220
0#
0(
#221
1#
#222
0#
b0001 '
1(
b00001010001110000111100111010011 /
#223
1#
#224
0#
0(
#225
1#
#226
0#
b0010 '
1(
b10011001101100101011110001111101 /
#227
1#
#228
0#
0(
#229
1#
#230
0#
b0100 '
1(
b00010000010000001001101000101000 /
#231
1#
#232
0#
0(
#233
1#
#234
0#
b0101 '
1(
b11111001111101111101111110101011 /
#235
1#
#236
0#
0(
#237
1#
#238
0#
b0111 '
1(
b11101001101101110100010110000011 /
#239
1#
#240
0#
0(
#241
1#
#242
0#
b1000 '
1(
b10101100110110010100000000000000 /
#243
1#
#244
0#
0(
#245
1#
#246
0#
b1001 '
1(
b00000000000010100011111010110011 /
#247
1#
#248
0#
0(
#249
1#
#250
0#
b1011 '
1(
#251
1#
#252
0#
0(
#253
1#
#254
0#
b0000 '
1(
b00101100001010001001110001110011 ,
b00000000000000000000000000000000 /
b00101100001010001001110001110011 1
#255
1#
#256
0#
0(
#257
1#
#258
0#
b0001 '
1(
b01111110000111100011011110011011 /
#259
1#
#260
0#
0(
#261
1#
#262
0#
b0010 '
1(
b00100101110011001111111010110101 /
#263
1#
#264
0#
0(
#265
1#
#266
0#
b0100 '
1(
b00000000001000001001100000100000 /
#267
1#
#268
0#
0(
#269
1#
#270
0#
b0101 '
1(
b01111101111111011001111101111011 /
#271
1#
#272
0#
0(
#273
1#
#274
0#
b0111 '
1(
b01111101110111010000011101011011 /
#275
1#
#276
0#
0(
#277
1#
#278
0#
b1000 '
1(
b11011001010000000000000000000000 /
#279
1#
#280
0#
0(
#281
1#
#282
0#
b1001 '
1(
b00000000000000000000101000111110 /
#283
1#
#284
0#
0(
#285
1#
#286
0#
b1011 '
1(
#287
1#
#288
0#
0(
#289
1#
#290
0#
b0000 '
1(
b01001011011001011011010011110010 ,
b00000000000000000000000000000000 /
b01001011011001011011010011110010 1
#291
1#
#292
0#
0(
#293
1#
#294
0#
b0001 '
1(
b10011101010110110101000000011010 /
#295
1#
#296
0#
0(
#297
1#
#298
0#
b0010 '
1(
b00000110100011111110011000110110 /
#299
1#
#300
0#
0(
#301
1#
#302
0#
b0100 '
1(
b01000001011001011001000000100000 /
#303
1#
#304
0#
0(
#305
1#
#306
0#
b0101 '
1(
b01011011111101011011111111111010 /
#307
1#
#308
0#
0(
#309
1#
#310
0#
b0111 '
1(
b00011010100100000010111111011010 /
#311
1#
#312
0#
0(
#313
1#
#314
0#
b1000 '
1(
b01101100101000000000000000000000 /
#315
1#
#316
0#
0(
#317
1#
#318
0#
b1001 '
1(
b00000000000000000001010001111101 /
#319
1#
#320
0#
0(
#321
1#
#322
0#
b1011 '
1(
#323
1#
#324
0#
0(
#325
1#
#326
0#
b0000 '
1(
b01111111100001001111001010110000 ,
b00000000000000000000000000000000 /
b01111111100001001111001010110000 1
#327
1#
#328
0#
0(
#329
1#
#330
0#
b0001 '
1(
b11010001011110101000110111011000 /
#331
1#
#332
0#
0(
#333
1#
#334
0#
b0010 '
1(
b11010010011100001010100001111000 /
#335
1#
#336
0#
0(
#337
1#
#338
0#
b0100 '
1(
b01010001100001001001001000100000 /
#339
1#
#340
0#
0(
#341
1#
#342
0#
b0101 '
1(
b01111111111101011111101110111000 /
#343
1#
#344
0#
0(
#345
1#
#346
0#
b0111 '
1(
b00101110011100010110100110011000 /
#347
1#
#348
0#
0(
#349
1#
#350
0#
b1000 '
1(
b10011011001010000000000000000000 /
#351
1#
#352
0#
0(
#353
1#
#354
0#
b1001 '
1(
b00000000000000000101000111110101 /
#355
1#
#356
0#
0(
#357
1#
#358
0#
b1011 '
1(
#359
1#
#360
0#
0(
#361
1#
#362
0#
b0000 '
1(
b01011111100000101111011101110100 *
b01010001111101011001101100101000 ,
b00000000000000000000000000000000 /
b01011111100000101111011101110100 0
b01010001111101011001101100101000 1
#363
1#
#364
0#
0(
#365
1#
#366
0#
b0001 '
1(
b10110001011110001001001010011100 /
#367
1#
#368
0#
0(
#369
1#
#370
0#
b0010 '
1(
b00001101100011010101110001001100 /
#371
1#
#372
0#
0(
#373
1#
#374
0#
b0100 '
1(
b01010001100000001001001100100000 /
#375
1#
#376
0#
0(
#377
1#
#378
0#
b0101 '
1(
b01011111111101111111111101111100 /
#379
1#
#380
0#
0(
#381
1#
#382
0#
b0111 '
1(
b00001110011101110110110001011100 /
#383
1#
#384
0#
0(
#385
1#
#386
0#
b1000 '
1(
b10000010111101110111010000000000 /
#387
1#
#388
0#
0(
#389
1#
#390
0#
b1001 '
1(
b00000000010111111000001011110111 /
#391
1#
#392
0#
0(
#393
1#
#394
0#
b1011 '
1(
#395
1#
#396
0#
0(
#397
1#
#398
0#
b0000 '
1(
b01011111100000101111011101110100 ,
b00000000000000000000000000000000 /
b01011111100000101111011101110100 1
#399
1#
#400
0#
0(
#401
1#
#402
0#
b0001 '
1(
b10111111000001011110111011101000 /
#403
1#
#404
0#
0(
#405
1#
#406
0#
b0010 '
1(
b00000000000000000000000000000000 /
#407
1#
#408
0#
0(
#409
1#
#410
0#
b0100 '
1(
b01011111100000101111011101110100 /
#411
1#
#412
0#
0(
#413
1#
#414
0#
b0101 '
1(
#415
1#
#416
0#
0(
#417
1#
#418
0#
b0111 '
1(
b00000000000000000000000000000000 /
#419
1#
#420
0#
0(
#421
1#
#422
0#
b1000 '
1(
b01110111010000000000000000000000 /
#423
1#
#424
0#
0(
#425
1#
#426
0#
b1001 '
1(
b00000000000000000000010111111000 /
#427
1#
#428
0#
0(
#429
1#
#430
0#
b1011 '
1(
#431
1#
#432
0#
0(
#433
1#
#434
0#
b0000 '
1(
b01000010001011111111001001110001 ,
b00000000000000000000000000000000 /
b01000010001011111111001001110001 1
#435
1#
#436
0#
0(
#437
1#
#438
0#
b0001 '
1(
b10100001101100101110100111100101 /
#439
1#
#440
0#
0(
#441
1#
#442
0#
b0010 '
1(
b00011101010100110000010100000011 /
#443
1#
#444
0#
0(
#445
1#
#446
0#
b0100 '
1(
b01000010000000101111001001110000 /
#447
1#
#448
0#
0(
#449
1#
#450
0#
b0101 '
1(
b01011111101011111111011101110101 /
#451
1#
#452
0#
0(
#453
1#
#454
0#
b0111 '
1(
b00011101101011010000010100000101 /
#455
1#
#456
0#
0(
#457
1#
#458
0#
b1000 '
1(
b11101110111010000000000000000000 /
#459
1#
#460
0#
0(
#461
1#
#462
0#
b1001 '
1(
b00000000000000000010111111000001 /
#463
1#
#464
0#
0(
#465
1#
#466
0#
b1011 '
1(
#467
1#
#468
0#
0(
#469
1#
#470
0#
b0000 '
1(
b11001000000101011000100010101101 ,
b00000000000000000000000000000000 /
b11001000000101011000100010101101 1
#471
1#
#472
0#
0(
#473
1#
#474
0#
b0001 '
1(
b00100111100110001000000000100001 /
#475
1#
#476
0#
0(
#477
1#
#478
0#
b0010 '
1(
b10010111011011010110111011000111 /
#479
1#
#480
0#
0(
#481
1#
#482
0#
b0100 '
1(
b01001000000000001000000000100100 /
#483
1#
#484
0#
0(
#485
1#
#486
0#
b0101 '
1(
b11011111100101111111111111111101 /
#487
1#
#488
0#
0(
#489
1#
#490
0#
b0111 '
1(
b10010111100101110111111111011001 /
#491
1#
#492
0#
0(
#493
1#
#494
0#
b1000 '
1(
b01011110111011101000000000000000 /
#495
1#
#496
0#
0(
#497
1#
#498
0#
b1001 '
1(
b00000000000000101111110000010111 /
#499
1#
#500
0#
0(
#501
1#
#502
0#
b1011 '
1(
#503
1#
#504
0#
0(
#505
1#
#506
0#
b0000 '
1(
b01101111111101001101011111001100 ,
b00000000000000000000000000000000 /
b01101111111101001101011111001100 1
#507
1#
#508
0#
0(
#509
1#
#510
0#
b0001 '
1(
b11001111011101111100111101000000 /
#511
1#
#512
0#
0(
#513
1#
#514
0#
b0010 '
1(
b11101111100011100001111110101000 /
#515
1#
#516
0#
0(
#517
1#
#518
0#
b0100 '
1(
b01001111100000001101011101000100 /
#519
1#
#520
0#
0(
#521
1#
#522
0#
b0101 '
1(
b01111111111101101111011111111100 /
#523
1#
#524
0#
0(
#525
1#
#526
0#
b0111 '
1(
b00110000011101100010000010111000 /
#527
1#
#528
0#
0(
#529
1#
#530
0#
b1000 '
1(
b00101111011101110100000000000000 /
#531
1#
#532
0#
0(
#533
1#
#534
0#
b1001 '
1(
b00000000000001011111100000101111 /
#535
1#
#536
0#
0(
#537
1#
#538
0#
b1011 '
1(
#539
1#
#540
0#
0(
#541
1#
#542
0#
b0000 '
1(
b00100110011000111011010110001000 ,
b00000000000000000000000000000000 /
b00100110011000111011010110001000 1
#543
1#
#544
0#
0(
#545
1#
#546
0#
b0001 '
1(
b10000101111001101010110011111100 /
#547
1#
#548
0#
0(
#549
1#
#550
0#
b0010 '
1(
b00111001000111110100000111101100 /
#551
1#
#552
0#
0(
#553
1#
#554
0#
b0100 '
1(
b00000110000000101011010100000000 /
#555
1#
#556
0#
0(
#557
1#
#558
0#
b0101 '
1(
b01111111111000111111011111111100 /
#559
1#
#560
0#
0(
#561
1#
#562
0#
b0111 '
1(
b01111001111000010100001011111100 /
#563
1#
#564
0#
0(
#565
1#
#566
0#
b1000 '
1(
b10000010111101110111010000000000 /
#567
1#
#568
0#
0(
#569
1#
#570
0#
b1001 '
1(
b00000000010111111000001011110111 /
#571
1#
#572
0#
0(
#573
1#
#574
0#
b1011 '
1(
#575
1#
#576
0#
0(
#577
1#
#578
0#
b0000 '
1(
b10111000010000101101111010101011 ,
b00000000000000000000000000000000 /
b10111000010000101101111010101011 1
#579
1#
#580
0#
0(
#581
1#
#582
0#
b0001 '
1(
b00010111110001011101011000011111 /
#583
1#
#584
0#
0(
#585
1#
#586
0#
b0010 '
1(
b10100111010000000001100011001001 /
#587
1#
#588
0#
0(
#589
1#
#590
0#
b0100 '
1(
b00011000000000101101011000100000 /
#591
1#
#592
0#
0(
#593
1#
#594
0#
b0101 '
1(
b11111111110000101111111111111111 /
#595
1#
#596
0#
0(
#597
1#
#598
0#
b0111 '
1(
b11100111110000000010100111011111 /
#599
1#
#600
0#
0(
#601
1#
#602
0#
b1000 '
1(
b00010111101110111010000000000000 /
#603
1#
#604
0#
0(
#605
1#
#606
0#
b1001 '
1(
b00000000000010111111000001011110 /
#607
1#
#608
0#
0(
#609
1#
#610
0#
b1011 '
1(
#611
1#
#612
0#
0(
#613
1#
#614
0#
b0000 '
1(
b00101100001010001001110001110011 ,
b00000000000000000000000000000000 /
b00101100001010001001110001110011 1
#615
1#
#616
0#
0(
#617
1#
#618
0#
b0001 '
1(
b10001011101010111001001111100111 /
#619
1#
#620
0#
0(
#621
1#
#622
0#
b0010 '
1(
b00110011010110100101101100000001 /
#623
1#
#624
0#
0(
#625
1#
#626
0#
b0100 '
1(
b00001100000000001001010001110000 /
#627
1#
#628
0#
0(
#629
1#
#630
0#
b0101 '
1(
b01111111101010101111111101110111 /
#631
1#
#632
0#
0(
#633
1#
#634
0#
b0111 '
1(
b01110011101010100110101100000111 /
#635
1#
#636
0#
0(
#637
1#
#638
0#
b1000 '
1(
b10111011101000000000000000000000 /
#639
1#
#640
0#
0(
#641
1#
#642
0#
b1001 '
1(
b00000000000000000000101111110000 /
#643
1#
#644
0#
0(
#645
1#
#646
0#
b1011 '
1(
#647
1#
#648
0#
0(
#649
1#
#650
0#
b0000 '
1(
b01001011011001011011010011110010 ,
b00000000000000000000000000000000 /
b01001011011001011011010011110010 1
#651
1#
#652
0#
0(
#653
1#
#654
0#
b0001 '
1(
b10101010111010001010110001100110 /
#655
1#
#656
0#
0(
#657
1#
#658
0#
b0010 '
1(
b00010100000111010100001010000010 /
#659
1#
#660
0#
0(
#661
1#
#662
0#
b0100 '
1(
b01001011000000001011010001110000 /
#663
1#
#664
0#
0(
#665
1#
#666
0#
b0101 '
1(
b01011111111001111111011111110110 /
#667
1#
#668
0#
0(
#669
1#
#670
0#
b0111 '
1(
b00010100111001110100001110000110 /
#671
1#
#672
0#
0(
#673
1#
#674
0#
b1000 '
1(
b11011101110100000000000000000000 /
#675
1#
#676
0#
0(
#677
1#
#678
0#
b1001 '
1(
b00000000000000000001011111100000 /
#679
1#
#680
0#
0(
#681
1#
#682
0#
b1011 '
1(
#683
1#
#684
0#
0(
#685
1#
#686
0#
b0000 '
1(
b01111111100001001111001010110000 ,
b00000000000000000000000000000000 /
b01111111100001001111001010110000 1
#687
1#
#688
0#
0(
#689
1#
#690
0#
b0001 '
1(
b11011111000001111110101000100100 /
#691
1#
#692
0#
0(
#693
1#
#694
0#
b0010 '
1(
b11011111111111100000010011000100 /
#695
1#
#696
0#
0(
#697
1#
#698
0#
b0100 '
1(
b01011111100000001111001000110000 /
#699
1#
#700
0#
0(
#701
1#
#702
0#
b0101 '
1(
b01111111100001101111011111110100 /
#703
1#
#704
0#
0(
#705
1#
#706
0#
b0111 '
1(
b00100000000001100000010111000100 /
#707
1#
#708
0#
0(
#709
1#
#710
0#
b1000 '
1(
b11110111011101000000000000000000 /
#711
1#
#712
0#
0(
#713
1#
#714
0#
b1001 '
1(
b00000000000000000101111110000010 /
#715
1#
#716
0#
0(
#717
1#
#718
0#
b1011 '
1(
#719
1#
#720
0#
0(
#721
1#
#722
0#
b0000 '
1(
b01000010001011111111001001110001 *
b01010001111101011001101100101000 ,
b00000000000000000000000000000000 /
b01000010001011111111001001110001 0
b01010001111101011001101100101000 1
#723
1#
#724
0#
0(
#725
1#
#726
0#
b0001 '
1(
b10010100001001011000110110011001 /
#727
1#
#728
0#
0(
#729
1#
#730
0#
b0010 '
1(
b11110000001110100101011101001001 /
#731
1#
#732
0#
0(
#733
1#
#734
0#
b0100 '
1(
b01000000001001011001001000100000 /
#735
1#
#736
0#
0(
#737
1#
#738
0#
b0101 '
1(
b01010011111111111111101101111001 /
#739
1#
#740
0#
0(
#741
1#
#742
0#
b0111 '
1(
b00010011110110100110100101011001 /
#743
1#
#744
0#
0(
#745
1#
#746
0#
b1000 '
1(
b00101111111100100111000100000000 /
#747
1#
#748
0#
0(
#749
1#
#750
0#
b1001 '
1(
b00000000010000100010111111110010 /
#751
1#
#752
0#
0(
#753
1#
#754
0#
b1011 '
1(
#755
1#
#756
0#
0(
#757
1#
#758
0#
b0000 '
1(
b01011111100000101111011101110100 ,
b00000000000000000000000000000000 /
b01011111100000101111011101110100 1
#759
1#
#760
0#
0(
#761
1#
#762
0#
b0001 '
1(
b10100001101100101110100111100101 /
#763
1#
#764
0#
0(
#765
1#
#766
0#
b0010 '
1(
b11100010101011001111101011111101 /
#767
1#
#768
0#
0(
#769
1#
#770
0#
b0100 '
1(
b01000010000000101111001001110000 /
#771
1#
#772
0#
0(
#773
1#
#774
0#
b0101 '
1(
b01011111101011111111011101110101 /
#775
1#
#776
0#
0(
#777
1#
#778
0#
b0111 '
1(
b00011101101011010000010100000101 /
#779
1#
#780
0#
0(
#781
1#
#782
0#
b1000 '
1(
b00100111000100000000000000000000 /
#783
1#
#784
0#
0(
#785
1#
#786
0#
b1001 '
1(
b00000000000000000000010000100010 /
#787
1#
#788
0#
0(
#789
1#
#790
0#
b1011 '
1(
#791
1#
#792
0#
0(
#793
1#
#794
0#
b0000 '
1(
b01000010001011111111001001110001 ,
b00000000000000000000000000000000 /
b01000010001011111111001001110001 1
#795
1#
#796
0#
0(
#797
1#
#798
0#
b0001 '
1(
b10000100010111111110010011100010 /
#799
1#
#800
0#
0(
#801
1#
#802
0#
b0010 '
1(
b00000000000000000000000000000000 /
#803
1#
#804
0#
0(
#805
1#
#806
0#
b0100 '
1(
b01000010001011111111001001110001 /
#807
1#
#808
0#
0(
#809
1#
#810
0#
b0101 '
1(
#811
1#
#812
0#
0(
#813
1#
#814
0#
b0111 '
1(
b00000000000000000000000000000000 /
#815
1#
#816
0#
0(
#817
1#
#818
0#
b1000 '
1(
b11100100111000100000000000000000 /
#819
1#
#820
0#
0(
#821
1#
#822
0#
b1001 '
1(
b00000000000000000010000100010111 /
#823
1#
#824
0#
0(
#825
1#
#826
0#
b1011 '
1(
#827
1#
#828
0#
0(
#829
1#
#830
0#
b0000 '
1(
b11001000000101011000100010101101 ,
b00000000000000000000000000000000 /
b11001000000101011000100010101101 1
#831
1#
#832
0#
0(
#833
1#
#834
0#
b0001 '
1(
b00001010010001010111101100011110 /
#835
1#
#836
0#
0(
#837
1#
#838
0#
b0010 '
1(
b01111010000110100110100111000100 /
#839
1#
#840
0#
0(
#841
1#
#842
0#
b0100 '
1(
b01000000000001011000000000100001 /
#843
1#
#844
0#
0(
#845
1#
#846
0#
b0101 '
1(
b11001010001111111111101011111101 /
#847
1#
#848
0#
0(
#849
1#
#850
0#
b0111 '
1(
b10001010001110100111101011011100 /
#851
1#
#852
0#
0(
#853
1#
#854
0#
b1000 '
1(
b11111110010011100010000000000000 /
#855
1#
#856
0#
0(
#857
1#
#858
0#
b1001 '
1(
b00000000000000100001000101111111 /
#859
1#
#860
0#
0(
#861
1#
#862
0#
b1011 '
1(
#863
1#
#864
0#
0(
#865
1#
#866
0#
b0000 '
1(
b01101111111101001101011111001100 ,
b00000000000000000000000000000000 /
b01101111111101001101011111001100 1
#867
1#
#868
0#
0(
#869
1#
#870
0#
b0001 '
1(
b10110010001001001100101000111101 /
#871
1#
#872
0#
0(
#873
1#
#874
0#
b0010 '
1(
b11010010001110110001101010100101 /
#875
1#
#876
0#
0(
#877
1#
#878
0#
b0100 '
1(
b01000010001001001101001001000000 /
#879
1#
#880
0#
0(
#881
1#
#882
0#
b0101 '
1(
b01101111111111111111011111111101 /
#883
1#
#884
0#
0(
#885
1#
#886
0#
b0111 '
1(
b00101101110110110010010110111101 /
#887
1#
#888
0#
0(
#889
1#
#890
0#
b1000 '
1(
b11111111001001110001000000000000 /
#891
1#
#892
0#
0(
#893
1#
#894
0#
b1001 '
1(
b00000000000001000010001011111111 /
#895
1#
#896
0#
0(
#897
1#
#898
0#
b1011 '
1(
#899
1#
#900
0#
0(
#901
1#
#902
0#
b0000 '
1(
b00100110011000111011010110001000 ,
b00000000000000000000000000000000 /
b00100110011000111011010110001000 1
#903
1#
#904
0#
0(
#905
1#
#906
0#
b0001 '
1(
b01101000100100111010011111111001 /
#907
1#
#908
0#
0(
#909
1#
#910
0#
b0010 '
1(
b00011011110011000011110011101001 /
#911
1#
#912
0#
0(
#913
1#
#914
0#
b0100 '
1(
b00000010001000111011000000000000 /
#915
1#
#916
0#
0(
#917
1#
#918
0#
b0101 '
1(
b01100110011011111111011111111001 /
#919
1#
#920
0#
0(
#921
1#
#922
0#
b0111 '
1(
b01100100010011000100011111111001 /
#923
1#
#924
0#
0(
#925
1#
#926
0#
b1000 '
1(
b00101111111100100111000100000000 /
#927
1#
#928
0#
0(
#929
1#
#930
0#
b1001 '
1(
b00000000010000100010111111110010 /
#931
1#
#932
0#
0(
#933
1#
#934
0#
b1011 '
1(
#935
1#
#936
0#
0(
#937
1#
#938
0#
b0000 '
1(
b10111000010000101101111010101011 ,
b00000000000000000000000000000000 /
b10111000010000101101111010101011 1
#939
1#
#940
0#
0(
#941
1#
#942
0#
b0001 '
1(
b11111010011100101101000100011100 /
#943
1#
#944
0#
0(
#945
1#
#946
0#
b0010 '
1(
b10001001111011010001001111000110 /
#947
1#
#948
0#
0(
#949
1#
#950
0#
b0100 '
1(
b00000000000000101101001000100001 /
#951
1#
#952
0#
0(
#953
1#
#954
0#
b0101 '
1(
b11111010011011111111111011111011 /
#955
1#
#956
0#
0(
#957
1#
#958
0#
b0111 '
1(
b11111010011011010010110011011010 /
#959
1#
#960
0#
0(
#961
1#
#962
0#
b1000 '
1(
b01111111100100111000100000000000 /
#963
1#
#964
0#
0(
#965
1#
#966
0#
b1001 '
1(
b00000000000010000100010111111110 /
#967
1#
#968
0#
0(
#969
1#
#970
0#
b1011 '
1(
#971
1#
#972
0#
0(
#973
1#
#974
0#
b0000 '
1(
b00101100001010001001110001110011 ,
b00000000000000000000000000000000 /
b00101100001010001001110001110011 1
#975
1#
#976
0#
0(
#977
1#
#978
0#
b0001 '
1(
b01101110010110001000111011100100 /
#979
1#
#980
0#
0(
#981
1#
#982
0#
b0010 '
1(
b00010110000001110101010111111110 /
#983
1#
#984
0#
0(
#985
1#
#986
0#
b0100 '
1(
b00000000001010001001000001110001 /
#987
1#
#988
0#
0(
#989
1#
#990
0#
b0101 '
1(
b01101110001011111111111001110011 /
#991
1#
#992
0#
0(
#993
1#
#994
0#
b0111 '
1(
b01101110000001110110111000000010 /
#995
1#
#996
0#
0(
#997
1#
#998
0#
b1000 '
1(
b10010011100010000000000000000000 /
#999
1#
#1000
0#
0(
#1001
1#
#1002
0#
b1001 '
1(
b00000000000000000000100001000101 /
#1003
1#
#1004
0#
0(
#1005
1#
#1006
0#
b1011 '
1(
#1007
1#
#1008
0#
0(
#1009
1#
#1010
0#
b0000 '
1(
b01001011011001011011010011110010 ,
b00000000000000000000000000000000 /
b01001011011001011011010011110010 1
#1011
1#
#1012
0#
0(
#1013
1#
#1014
0#
b0001 '
1(
b10001101100101011010011101100011 /
#1015
1#
#1016
0#
0(
#1017
1#
#1018
0#
b0010 '
1(
b11110110110010100011110101111111 /
#1019
1#
#1020
0#
0(
#1021
1#
#1022
0#
b0100 '
1(
b01000010001001011011000001110000 /
#1023
1#
#1024
0#
0(
#1025
1#
#1026
0#
b0101 '
1(
b01001011011011111111011011110011 /
#1027
1#
#1028
0#
0(
#1029
1#
#1030
0#
b0111 '
1(
b00001001010010100100011010000011 /
#1031
1#
#1032
0#
0(
#1033
1#
#1034
0#
b1000 '
1(
b11001001110001000000000000000000 /
#1035
1#
#1036
0#
0(
#1037
1#
#1038
0#
b1001 '
1(
b00000000000000000001000010001011 /
#1039
1#
#1040
0#
0(
#1041
1#
#1042
0#
b1011 '
1(
#1043
1#
#1044
0#
0(
#1045
1#
#1046
0#
b0000 '
1(
b01111111100001001111001010110000 ,
b00000000000000000000000000000000 /
b01111111100001001111001010110000 1
#1047
1#
#1048
0#
0(
#1049
1#
#1050
0#
b0001 '
1(
b11000001101101001110010100100001 /
#1051
1#
#1052
0#
0(
#1053
1#
#1054
0#
b0010 '
1(
b11000010101010101111111111000001 /
#1055
1#
#1056
0#
0(
#1057
1#
