chisel/test_run_dir/Top_should_wave/Top.vcd
$version Generated by VerilatedVcd $end
$date 2024年01月24日 (週三) 20時49分15秒 $end
$timescale 1ps $end

 $scope module TOP $end
  $var wire  1 i clock $end
  $var wire 32 l io_addr [31:0] $end
  $var wire 32 k io_ans [31:0] $end
  $var wire  1 s io_bundleCtrl_ctrlALUSrc $end
  $var wire  1 o io_bundleCtrl_ctrlBranch $end
  $var wire  1 t io_bundleCtrl_ctrlJAL $end
  $var wire  1 n io_bundleCtrl_ctrlJump $end
  $var wire  2 w io_bundleCtrl_ctrlLSType [1:0] $end
  $var wire  1 q io_bundleCtrl_ctrlLoad $end
  $var wire  4 u io_bundleCtrl_ctrlOP [3:0] $end
  $var wire  1 p io_bundleCtrl_ctrlRegWrite $end
  $var wire  1 v io_bundleCtrl_ctrlSigned $end
  $var wire  1 r io_bundleCtrl_ctrlStore $end
  $var wire 32 { io_imm [31:0] $end
  $var wire 32 m io_inst [31:0] $end
  $var wire 32 } io_result [31:0] $end
  $var wire 32 x io_resultALU [31:0] $end
  $var wire  1 | io_resultBranch $end
  $var wire 32 y io_rs1 [31:0] $end
  $var wire 32 z io_rs2 [31:0] $end
  $var wire  1 j reset $end
  $scope module Top $end
   $var wire  1 , alu_io_bundleAluControl_ctrlALUSrc $end
   $var wire  1 % alu_io_bundleAluControl_ctrlBranch $end
   $var wire  1 - alu_io_bundleAluControl_ctrlJAL $end
   $var wire  4 . alu_io_bundleAluControl_ctrlOP [3:0] $end
   $var wire  1 / alu_io_bundleAluControl_ctrlSigned $end
   $var wire 32 5 alu_io_dataRead1 [31:0] $end
   $var wire 32 6 alu_io_dataRead2 [31:0] $end
   $var wire 32 4 alu_io_imm [31:0] $end
   $var wire 32 # alu_io_pc [31:0] $end
   $var wire 32 7 alu_io_resultAlu [31:0] $end
   $var wire  1 & alu_io_resultBranch $end
   $var wire  1 i clock $end
   $var wire  1 , controller_io_bundleAluControl_ctrlALUSrc $end
   $var wire  1 % controller_io_bundleAluControl_ctrlBranch $end
   $var wire  1 - controller_io_bundleAluControl_ctrlJAL $end
   $var wire  4 . controller_io_bundleAluControl_ctrlOP [3:0] $end
   $var wire  1 / controller_io_bundleAluControl_ctrlSigned $end
   $var wire  1 , controller_io_bundleControlIn_ctrlALUSrc $end
   $var wire  1 % controller_io_bundleControlIn_ctrlBranch $end
   $var wire  1 - controller_io_bundleControlIn_ctrlJAL $end
   $var wire  1 $ controller_io_bundleControlIn_ctrlJump $end
   $var wire  1 * controller_io_bundleControlIn_ctrlLoad $end
   $var wire  4 . controller_io_bundleControlIn_ctrlOP [3:0] $end
   $var wire  1 ) controller_io_bundleControlIn_ctrlRegWrite $end
   $var wire  1 / controller_io_bundleControlIn_ctrlSigned $end
   $var wire  1 + controller_io_bundleControlIn_ctrlStore $end
   $var wire  1 % controller_io_bundleControlOut_ctrlBranch $end
   $var wire  1 $ controller_io_bundleControlOut_ctrlJump $end
   $var wire  1 ) controller_io_bundleControlOut_ctrlRegWrite $end
   $var wire  2 8 controller_io_bundleMemDataControl_ctrlLSType [1:0] $end
   $var wire  1 * controller_io_bundleMemDataControl_ctrlLoad $end
   $var wire  1 / controller_io_bundleMemDataControl_ctrlSigned $end
   $var wire  1 + controller_io_bundleMemDataControl_ctrlStore $end
   $var wire  1 , decoder_io_bundleCtrl_ctrlALUSrc $end
   $var wire  1 % decoder_io_bundleCtrl_ctrlBranch $end
   $var wire  1 - decoder_io_bundleCtrl_ctrlJAL $end
   $var wire  1 $ decoder_io_bundleCtrl_ctrlJump $end
   $var wire  2 0 decoder_io_bundleCtrl_ctrlLSType [1:0] $end
   $var wire  1 * decoder_io_bundleCtrl_ctrlLoad $end
   $var wire  4 . decoder_io_bundleCtrl_ctrlOP [3:0] $end
   $var wire  1 ) decoder_io_bundleCtrl_ctrlRegWrite $end
   $var wire  1 / decoder_io_bundleCtrl_ctrlSigned $end
   $var wire  1 + decoder_io_bundleCtrl_ctrlStore $end
   $var wire  5 3 decoder_io_bundleReg_rd [4:0] $end
   $var wire  5 1 decoder_io_bundleReg_rs1 [4:0] $end
   $var wire  5 2 decoder_io_bundleReg_rs2 [4:0] $end
   $var wire 32 4 decoder_io_imm [31:0] $end
   $var wire 32 ( decoder_io_inst [31:0] $end
   $var wire 32 l io_addr [31:0] $end
   $var wire 32 k io_ans [31:0] $end
   $var wire  1 s io_bundleCtrl_ctrlALUSrc $end
   $var wire  1 o io_bundleCtrl_ctrlBranch $end
   $var wire  1 t io_bundleCtrl_ctrlJAL $end
   $var wire  1 n io_bundleCtrl_ctrlJump $end
   $var wire  2 w io_bundleCtrl_ctrlLSType [1:0] $end
   $var wire  1 q io_bundleCtrl_ctrlLoad $end
   $var wire  4 u io_bundleCtrl_ctrlOP [3:0] $end
   $var wire  1 p io_bundleCtrl_ctrlRegWrite $end
   $var wire  1 v io_bundleCtrl_ctrlSigned $end
   $var wire  1 r io_bundleCtrl_ctrlStore $end
   $var wire 32 { io_imm [31:0] $end
   $var wire 32 m io_inst [31:0] $end
   $var wire 32 } io_result [31:0] $end
   $var wire 32 x io_resultALU [31:0] $end
   $var wire  1 | io_resultBranch $end
   $var wire 32 y io_rs1 [31:0] $end
   $var wire 32 z io_rs2 [31:0] $end
   $var wire  1 i memData_clock $end
   $var wire  2 8 memData_io_bundleMemDataControl_ctrlLSType [1:0] $end
   $var wire  1 * memData_io_bundleMemDataControl_ctrlLoad $end
   $var wire  1 / memData_io_bundleMemDataControl_ctrlSigned $end
   $var wire  1 + memData_io_bundleMemDataControl_ctrlStore $end
   $var wire 32 6 memData_io_dataStore [31:0] $end
   $var wire 32 ' memData_io_result [31:0] $end
   $var wire 32 7 memData_io_resultALU [31:0] $end
   $var wire  1 i memInst_clock $end
   $var wire 32 # memInst_io_addr [31:0] $end
   $var wire 32 ( memInst_io_inst [31:0] $end
   $var wire  1 i pcReg_clock $end
   $var wire 32 # pcReg_io_addrOut [31:0] $end
   $var wire 32 ' pcReg_io_addrTarget [31:0] $end
   $var wire  1 % pcReg_io_ctrlBranch $end
   $var wire  1 $ pcReg_io_ctrlJump $end
   $var wire  1 & pcReg_io_resultBranch $end
   $var wire  1 j pcReg_reset $end
   $var wire  1 i registers_clock $end
   $var wire  5 3 registers_io_bundleReg_rd [4:0] $end
   $var wire  5 1 registers_io_bundleReg_rs1 [4:0] $end
   $var wire  5 2 registers_io_bundleReg_rs2 [4:0] $end
   $var wire  1 $ registers_io_ctrlJump $end
   $var wire  1 ) registers_io_ctrlRegWrite $end
   $var wire 32 5 registers_io_dataRead1 [31:0] $end
   $var wire 32 6 registers_io_dataRead2 [31:0] $end
   $var wire 32 ' registers_io_dataWrite [31:0] $end
   $var wire 32 # registers_io_pc [31:0] $end
   $var wire  1 j reset $end
   $scope module alu $end
    $var wire  1 , io_bundleAluControl_ctrlALUSrc $end
    $var wire  1 % io_bundleAluControl_ctrlBranch $end
    $var wire  1 - io_bundleAluControl_ctrlJAL $end
    $var wire  4 . io_bundleAluControl_ctrlOP [3:0] $end
    $var wire  1 / io_bundleAluControl_ctrlSigned $end
    $var wire 32 5 io_dataRead1 [31:0] $end
    $var wire 32 6 io_dataRead2 [31:0] $end
    $var wire 32 4 io_imm [31:0] $end
    $var wire 32 # io_pc [31:0] $end
    $var wire 32 7 io_resultAlu [31:0] $end
    $var wire  1 & io_resultBranch $end
    $var wire 32 9 oprand1 [31:0] $end
    $var wire 32 : oprand2 [31:0] $end
   $upscope $end
   $scope module controller $end
    $var wire  1 , io_bundleAluControl_ctrlALUSrc $end
    $var wire  1 % io_bundleAluControl_ctrlBranch $end
    $var wire  1 - io_bundleAluControl_ctrlJAL $end
    $var wire  4 . io_bundleAluControl_ctrlOP [3:0] $end
    $var wire  1 / io_bundleAluControl_ctrlSigned $end
    $var wire  1 , io_bundleControlIn_ctrlALUSrc $end
    $var wire  1 % io_bundleControlIn_ctrlBranch $end
    $var wire  1 - io_bundleControlIn_ctrlJAL $end
    $var wire  1 $ io_bundleControlIn_ctrlJump $end
    $var wire  1 * io_bundleControlIn_ctrlLoad $end
    $var wire  4 . io_bundleControlIn_ctrlOP [3:0] $end
    $var wire  1 ) io_bundleControlIn_ctrlRegWrite $end
    $var wire  1 / io_bundleControlIn_ctrlSigned $end
    $var wire  1 + io_bundleControlIn_ctrlStore $end
    $var wire  1 % io_bundleControlOut_ctrlBranch $end
    $var wire  1 $ io_bundleControlOut_ctrlJump $end
    $var wire  1 ) io_bundleControlOut_ctrlRegWrite $end
    $var wire  2 8 io_bundleMemDataControl_ctrlLSType [1:0] $end
    $var wire  1 * io_bundleMemDataControl_ctrlLoad $end
    $var wire  1 / io_bundleMemDataControl_ctrlSigned $end
    $var wire  1 + io_bundleMemDataControl_ctrlStore $end
   $upscope $end
   $scope module decoder $end
    $var wire 32 = imm_b [31:0] $end
    $var wire 32 ; imm_i [31:0] $end
    $var wire 33 ? imm_j [32:0] $end
    $var wire 32 < imm_s [31:0] $end
    $var wire 32 A imm_shamt [31:0] $end
    $var wire 32 > imm_u [31:0] $end
    $var wire  1 , io_bundleCtrl_ctrlALUSrc $end
    $var wire  1 % io_bundleCtrl_ctrlBranch $end
    $var wire  1 - io_bundleCtrl_ctrlJAL $end
    $var wire  1 $ io_bundleCtrl_ctrlJump $end
    $var wire  2 0 io_bundleCtrl_ctrlLSType [1:0] $end
    $var wire  1 * io_bundleCtrl_ctrlLoad $end
    $var wire  4 . io_bundleCtrl_ctrlOP [3:0] $end
    $var wire  1 ) io_bundleCtrl_ctrlRegWrite $end
    $var wire  1 / io_bundleCtrl_ctrlSigned $end
    $var wire  1 + io_bundleCtrl_ctrlStore $end
    $var wire  5 3 io_bundleReg_rd [4:0] $end
    $var wire  5 1 io_bundleReg_rs1 [4:0] $end
    $var wire  5 2 io_bundleReg_rs2 [4:0] $end
    $var wire 32 4 io_imm [31:0] $end
    $var wire 32 ( io_inst [31:0] $end
   $upscope $end
   $scope module memData $end
    $var wire  1 i clock $end
    $var wire 32 C dataLoad [31:0] $end
    $var wire 32 "! initvar [31:0] $end
    $var wire  2 8 io_bundleMemDataControl_ctrlLSType [1:0] $end
    $var wire  1 * io_bundleMemDataControl_ctrlLoad $end
    $var wire  1 / io_bundleMemDataControl_ctrlSigned $end
    $var wire  1 + io_bundleMemDataControl_ctrlStore $end
    $var wire 32 6 io_dataStore [31:0] $end
    $var wire 32 ' io_result [31:0] $end
    $var wire 32 7 io_resultALU [31:0] $end
    $var wire 10 B mem_MPORT_1_addr [9:0] $end
    $var wire 32 D mem_MPORT_1_data [31:0] $end
    $var wire  1 E mem_MPORT_1_en $end
    $var wire  1 ~ mem_MPORT_1_mask $end
    $var wire 10 B mem_MPORT_2_addr [9:0] $end
    $var wire 32 F mem_MPORT_2_data [31:0] $end
    $var wire  1 G mem_MPORT_2_en $end
    $var wire  1 ~ mem_MPORT_2_mask $end
    $var wire 10 B mem_MPORT_addr [9:0] $end
    $var wire 32 6 mem_MPORT_data [31:0] $end
    $var wire  1 !! mem_MPORT_en $end
    $var wire  1 ~ mem_MPORT_mask $end
    $var wire 10 B mem_dataLoad_MPORT_addr [9:0] $end
    $var wire 32 C mem_dataLoad_MPORT_data [31:0] $end
    $var wire  1 ~ mem_dataLoad_MPORT_en $end
   $upscope $end
   $scope module memInst $end
    $var wire  1 i clock $end
    $var wire 32 #! initvar [31:0] $end
    $var wire 32 # io_addr [31:0] $end
    $var wire 32 ( io_inst [31:0] $end
    $var wire 12 H mem_io_inst_MPORT_addr [11:0] $end
    $var wire 32 ( mem_io_inst_MPORT_data [31:0] $end
    $var wire  1 ~ mem_io_inst_MPORT_en $end
   $upscope $end
   $scope module pcReg $end
    $var wire  1 i clock $end
    $var wire 32 # io_addrOut [31:0] $end
    $var wire 32 ' io_addrTarget [31:0] $end
    $var wire  1 % io_ctrlBranch $end
    $var wire  1 $ io_ctrlJump $end
    $var wire  1 & io_resultBranch $end
    $var wire 32 # regPC [31:0] $end
    $var wire  1 j reset $end
   $upscope $end
   $scope module registers $end
    $var wire  1 i clock $end
    $var wire  5 3 io_bundleReg_rd [4:0] $end
    $var wire  5 1 io_bundleReg_rs1 [4:0] $end
    $var wire  5 2 io_bundleReg_rs2 [4:0] $end
    $var wire  1 $ io_ctrlJump $end
    $var wire  1 ) io_ctrlRegWrite $end
    $var wire 32 5 io_dataRead1 [31:0] $end
    $var wire 32 6 io_dataRead2 [31:0] $end
    $var wire 32 ' io_dataWrite [31:0] $end
    $var wire 32 # io_pc [31:0] $end
    $var wire 32 I regs_0 [31:0] $end
    $var wire 32 J regs_1 [31:0] $end
    $var wire 32 S regs_10 [31:0] $end
    $var wire 32 T regs_11 [31:0] $end
    $var wire 32 U regs_12 [31:0] $end
    $var wire 32 V regs_13 [31:0] $end
    $var wire 32 W regs_14 [31:0] $end
    $var wire 32 X regs_15 [31:0] $end
    $var wire 32 Y regs_16 [31:0] $end
    $var wire 32 Z regs_17 [31:0] $end
    $var wire 32 [ regs_18 [31:0] $end
    $var wire 32 \ regs_19 [31:0] $end
    $var wire 32 K regs_2 [31:0] $end
    $var wire 32 ] regs_20 [31:0] $end
    $var wire 32 ^ regs_21 [31:0] $end
    $var wire 32 _ regs_22 [31:0] $end
    $var wire 32 ` regs_23 [31:0] $end
    $var wire 32 a regs_24 [31:0] $end
    $var wire 32 b regs_25 [31:0] $end
    $var wire 32 c regs_26 [31:0] $end
    $var wire 32 d regs_27 [31:0] $end
    $var wire 32 e regs_28 [31:0] $end
    $var wire 32 f regs_29 [31:0] $end
    $var wire 32 L regs_3 [31:0] $end
    $var wire 32 g regs_30 [31:0] $end
    $var wire 32 h regs_31 [31:0] $end
    $var wire 32 M regs_4 [31:0] $end
    $var wire 32 N regs_5 [31:0] $end
    $var wire 32 O regs_6 [31:0] $end
    $var wire 32 P regs_7 [31:0] $end
    $var wire 32 Q regs_8 [31:0] $end
    $var wire 32 R regs_9 [31:0] $end
   $upscope $end
  $upscope $end
 $upscope $end
$enddefinitions $end


#0
b00000000000000000000000000000000 #
0$
0%
0&
b00000000000000000000000000000000 '
b00000000000000000000000010010011 (
1)
0*
0+
1,
0-
b0001 .
1/
b10 0
b00000 1
b00000 2
b00001 3
b00000000000000000000000000000000 4
b00000000000000000000000000000000 5
b00000000000000000000000000000000 6
b00000000000000000000000000000000 7
b01 8
b00000000000000000000000000000000 9
b00000000000000000000000000000000 :
b00000000000000000000000000000000 ;
b00000000000000000000000000000001 <
b00000000000000000000100000000000 =
b00000000000000000000000000000000 >
b000000000000000000000000000000000 ?
b00000000000000000000000000000000 A
b0000000000 B
b00000000000000000000000000001010 C
b00000000000000000000000000000000 D
0E
b00000000000000000000000000000000 F
0G
b000000000000 H
b00000000000000000000000000000000 I
b00000000000000000000000000000000 J
b00000000000000000000000000000000 K
b00000000000000000000000000000000 L
b00000000000000000000000000000000 M
b00000000000000000000000000000000 N
b00000000000000000000000000000000 O
b00000000000000000000000000000000 P
b00000000000000000000000000000000 Q
b00000000000000000000000000000000 R
b00000000000000000000000000000000 S
b00000000000000000000000000000000 T
b00000000000000000000000000000000 U
b00000000000000000000000000000000 V
b00000000000000000000000000000000 W
b00000000000000000000000000000000 X
b00000000000000000000000000000000 Y
b00000000000000000000000000000000 Z
b00000000000000000000000000000000 [
b00000000000000000000000000000000 \
b00000000000000000000000000000000 ]
b00000000000000000000000000000000 ^
b00000000000000000000000000000000 _
b00000000000000000000000000000000 `
b00000000000000000000000000000000 a
b00000000000000000000000000000000 b
b00000000000000000000000000000000 c
b00000000000000000000000000000000 d
b00000000000000000000000000000000 e
b00000000000000000000000000000000 f
b00000000000000000000000000000000 g
b00000000000000000000000000000000 h
0i
1j
b00000000000000000000000000110111 k
b00000000000000000000000000000000 l
b00000000000000000000000010010011 m
0n
0o
1p
0q
0r
1s
0t
b0001 u
1v
b10 w
b00000000000000000000000000000000 x
b00000000000000000000000000000000 y
b00000000000000000000000000000000 z
b00000000000000000000000000000000 {
0|
b00000000000000000000000000000000 }
1~
0!!
b00000000000000000000000000000000 "!
b00000000000000000000000000000000 #!
#1
b00000000000000000001000011000100 #
b11111111111111111111111111100000 '
b11111110000000010000000100010011 (
b00010 1
b00010 3
b11111111111111111111111111100000 4
b11111111111111111111111111100000 7
b11111111111111111111111111100000 :
b11111111111111111111111111100000 ;
b11111111111111111111111111100010 <
b11111111111111111111011111100010 =
b11111110000000010000000000000000 >
b111111111111100010000011111100000 ?
b1111111000 B
b00000000000000000000000000000000 C
b010000110001 H
1i
b00000000000000000001000011000100 l
b11111110000000010000000100010011 m
b11111111111111111111111111100000 x
b11111111111111111111111111100000 {
b11111111111111111111111111100000 }
#2
0i
0j
#3
b00000000000000000001000011001000 #
b11111111111111111111111111111100 '
b00000000000100010010111000100011 (
0)
1+
b00001 2
b11100 3
b00000000000000000000000000011100 4
b11111111111111111111111111100000 5
b11111111111111111111111111111100 7
b11111111111111111111111111100000 9
b00000000000000000000000000011100 :
b00000000000000000000000000000001 ;
b00000000000000000000000000011100 <
b00000000000000000000000000011100 =
b00000000000100010010000000000000 >
b000000000000000010010100000000000 ?
b00000000000000000000000000000001 A
b1111111111 B
1E
b010000110010 H
b11111111111111111111111111100000 K
1i
b00000000000000000001000011001000 l
b00000000000100010010111000100011 m
0p
1r
b11111111111111111111111111111100 x
b11111111111111111111111111100000 y
b00000000000000000000000000011100 {
b11111111111111111111111111111100 }
#4
0i
#5
b00000000000000000001000011001100 #
b11111111111111111111111111111000 '
b00000000100000010010110000100011 (
b01000 2
b11000 3
b00000000000000000000000000011000 4
b11111111111111111111111111111000 7
b00000000000000000000000000011000 :
b00000000000000000000000000001000 ;
b00000000000000000000000000011000 <
b00000000000000000000000000011000 =
b00000000100000010010000000000000 >
b000000000000000010010000000001000 ?
b00000000000000000000000000001000 A
b1111111110 B
b010000110011 H
1i
b00000000000000000001000011001100 l
b00000000100000010010110000100011 m
b11111111111111111111111111111000 x
b00000000000000000000000000011000 {
b11111111111111111111111111111000 }
#6
0i
#7
b00000000000000000001000011010000 #
b00000000000000000000000000000000 '
b00000010000000010000010000010011 (
1)
0+
b00000 2
b01000 3
b00000000000000000000000000100000 4
b00000000000000000000000000000000 7
b00000000000000000000000000100000 :
b00000000000000000000000000100000 ;
b00000000000000000000000000101000 <
b00000000000000000000000000101000 =
b00000010000000010000000000000000 >
b000000000000000010000000000100000 ?
b00000000000000000000000000000000 A
b0000000000 B
b00000000000000000000000000001010 C
0E
b010000110100 H
1i
b00000000000000000001000011010000 l
b00000010000000010000010000010011 m
1p
0r
b00000000000000000000000000000000 x
b00000000000000000000000000100000 {
b00000000000000000000000000000000 }
#8
0i
#9
b00000000000000000001000011010100 #
b00000000000000000000000000001010 '
b00000000101000000000011110010011 (
b00000 1
b01010 2
b01111 3
b00000000000000000000000000001010 4
b00000000000000000000000000000000 5
b00000000000000000000000000001010 7
b00000000000000000000000000000000 9
b00000000000000000000000000001010 :
b00000000000000000000000000001010 ;
b00000000000000000000000000001111 <
b00000000000000000000100000001110 =
b00000000101000000000000000000000 >
b000000000000000000000000000001010 ?
b00000000000000000000000000001010 A
b0000000010 B
b00000000000000000000000000000000 C
b010000110101 H
1i
b00000000000000000001000011010100 l
b00000000101000000000011110010011 m
b00000000000000000000000000001010 x
b00000000000000000000000000000000 y
b00000000000000000000000000001010 {
b00000000000000000000000000001010 }
#10
0i
#11
b00000000000000000001000011011000 #
b11111111111111111111111111101100 '
b11111110111101000010011000100011 (
0)
1+
b01000 1
b01111 2
b01100 3
b11111111111111111111111111101100 4
b00000000000000000000000000001010 6
b11111111111111111111111111101100 7
b11111111111111111111111111101100 :
b11111111111111111111111111101111 ;
b11111111111111111111111111101100 <
b11111111111111111111011111101100 =
b11111110111101000010000000000000 >
b111111111111101000010111111101110 ?
b00000000000000000000000000001111 A
b1111111011 B
b00000000000000000000000000001010 D
1E
b00000000000000000000000000001010 F
b010000110110 H
b00000000000000000000000000001010 X
1i
b00000000000000000001000011011000 l
b11111110111101000010011000100011 m
0p
1r
b11111111111111111111111111101100 x
b00000000000000000000000000001010 z
b11111111111111111111111111101100 {
b11111111111111111111111111101100 }
#12
0i
#13
b00000000000000000001000011011100 #
b00000000000000000000000000001010 '
b11111110110001000010010100000011 (
1)
1*
0+
b01100 2
b01010 3
b00000000000000000000000000000000 6
b11111111111111111111111111101100 ;
b11111111111111111111111111101010 <
b11111111111111111111011111101010 =
b11111110110001000010000000000000 >
b111111111111101000010011111101100 ?
b00000000000000000000000000001100 A
b00000000000000000000000000001010 C
b00000000000000000000000000000000 D
0E
b00000000000000000000000000000000 F
b010000110111 H
1i
b00000000000000000001000011011100 l
b11111110110001000010010100000011 m
1p
1q
0r
b00000000000000000000000000000000 z
b00000000000000000000000000001010 }
#14
0i
#15
b00000000000000000001000011100000 #
1$
b00000000000000000001000001001000 '
b11110110100111111111000011101111 (
0*
1-
b11111 1
b01001 2
b00001 3
b11111111111111111111111101101000 4
b00000000000000000001000001001000 7
b00000000000000000001000011100000 9
b11111111111111111111111101101000 :
b11111111111111111111111101101001 ;
b11111111111111111111111101100001 <
b11111111111111111111111101100000 =
b11110110100111111111000000000000 >
b111111111111111111111111101101000 ?
b00000000000000000000000000001001 A
b0000010010 B
b00000000000000000000000000000000 C
b010000111000 H
b00000000000000000000000000001010 S
1i
b00000000000000000001000011100000 l
b11110110100111111111000011101111 m
1n
0q
1t
b00000000000000000001000001001000 x
b11111111111111111111111101101000 {
b00000000000000000001000001001000 }
#16
0i
#17
b00000000000000000001000001001000 #
0$
b11111111111111111111111111000000 '
b11111110000000010000000100010011 (
0-
b00010 1
b00000 2
b00010 3
b11111111111111111111111111100000 4
b11111111111111111111111111100000 5
b11111111111111111111111111000000 7
b11111111111111111111111111100000 9
b11111111111111111111111111100000 :
b11111111111111111111111111100000 ;
b11111111111111111111111111100010 <
b11111111111111111111011111100010 =
b11111110000000010000000000000000 >
b111111111111100010000011111100000 ?
b00000000000000000000000000000000 A
b1111110000 B
b010000010010 H
b00000000000000000001000011100100 J
1i
b00000000000000000001000001001000 l
b11111110000000010000000100010011 m
0n
0t
b11111111111111111111111111000000 x
b11111111111111111111111111100000 y
b11111111111111111111111111100000 {
b11111111111111111111111111000000 }
#18
0i
#19
b00000000000000000001000001001100 #
b11111111111111111111111111011100 '
b00000000000100010010111000100011 (
0)
1+
b00001 2
b11100 3
b00000000000000000000000000011100 4
b11111111111111111111111111000000 5
b00000000000000000001000011100100 6
b11111111111111111111111111011100 7
b11111111111111111111111111000000 9
b00000000000000000000000000011100 :
b00000000000000000000000000000001 ;
b00000000000000000000000000011100 <
b00000000000000000000000000011100 =
b00000000000100010010000000000000 >
b000000000000000010010100000000000 ?
b00000000000000000000000000000001 A
b1111110111 B
b00000000000000000001000011100100 D
1E
b00000000000000000000000011100100 F
b010000010011 H
b11111111111111111111111111000000 K
1i
b00000000000000000001000001001100 l
b00000000000100010010111000100011 m
0p
1r
b11111111111111111111111111011100 x
b11111111111111111111111111000000 y
b00000000000000000001000011100100 z
b00000000000000000000000000011100 {
b11111111111111111111111111011100 }
#20
0i
#21
b00000000000000000001000001010000 #
b11111111111111111111111111011000 '
b00000000100000010010110000100011 (
b01000 2
b11000 3
b00000000000000000000000000011000 4
b00000000000000000000000000000000 6
b11111111111111111111111111011000 7
b00000000000000000000000000011000 :
b00000000000000000000000000001000 ;
b00000000000000000000000000011000 <
b00000000000000000000000000011000 =
b00000000100000010010000000000000 >
b000000000000000010010000000001000 ?
b00000000000000000000000000001000 A
b1111110110 B
b00000000000000000000000000000000 D
b00000000000000000000000000000000 F
b010000010100 H
1i
b00000000000000000001000001010000 l
b00000000100000010010110000100011 m
b11111111111111111111111111011000 x
b00000000000000000000000000000000 z
b00000000000000000000000000011000 {
b11111111111111111111111111011000 }
#22
0i
#23
b00000000000000000001000001010100 #
b11111111111111111111111111010100 '
b00000000100100010010101000100011 (
b01001 2
b10100 3
b00000000000000000000000000010100 4
b11111111111111111111111111010100 7
b00000000000000000000000000010100 :
b00000000000000000000000000001001 ;
b00000000000000000000000000010100 <
b00000000000000000000000000010100 =
b00000000100100010010000000000000 >
b000000000000000010010100000001000 ?
b00000000000000000000000000001001 A
b1111110101 B
b010000010101 H
1i
b00000000000000000001000001010100 l
b00000000100100010010101000100011 m
b11111111111111111111111111010100 x
b00000000000000000000000000010100 {
b11111111111111111111111111010100 }
#24
0i
#25
b00000000000000000001000001011000 #
b11111111111111111111111111100000 '
b00000010000000010000010000010011 (
1)
0+
b00000 2
b01000 3
b00000000000000000000000000100000 4
b11111111111111111111111111100000 7
b00000000000000000000000000100000 :
b00000000000000000000000000100000 ;
b00000000000000000000000000101000 <
b00000000000000000000000000101000 =
b00000010000000010000000000000000 >
b000000000000000010000000000100000 ?
b00000000000000000000000000000000 A
b1111111000 B
0E
b010000010110 H
1i
b00000000000000000001000001011000 l
b00000010000000010000010000010011 m
1p
0r
b11111111111111111111111111100000 x
b00000000000000000000000000100000 {
b11111111111111111111111111100000 }
#26
0i
#27
b00000000000000000001000001011100 #
b11111111111111111111111111001100 '
b11111110101001000010011000100011 (
0)
1+
b01000 1
b01010 2
b01100 3
b11111111111111111111111111101100 4
b11111111111111111111111111100000 5
b00000000000000000000000000001010 6
b11111111111111111111111111001100 7
b11111111111111111111111111100000 9
b11111111111111111111111111101100 :
b11111111111111111111111111101010 ;
b11111111111111111111111111101100 <
b11111111111111111111011111101100 =
b11111110101001000010000000000000 >
b111111111111101000010011111101010 ?
b00000000000000000000000000001010 A
b1111110011 B
b00000000000000000000000000001010 D
1E
b00000000000000000000000000001010 F
b010000010111 H
b11111111111111111111111111100000 Q
1i
b00000000000000000001000001011100 l
b11111110101001000010011000100011 m
0p
1r
b11111111111111111111111111001100 x
b11111111111111111111111111100000 y
b00000000000000000000000000001010 z
b11111111111111111111111111101100 {
b11111111111111111111111111001100 }
#28
0i
#29
b00000000000000000001000001100000 #
b00000000000000000000000000001010 '
b11111110110001000010011100000011 (
1)
1*
0+
b01100 2
b01110 3
b00000000000000000000000000000000 6
b11111111111111111111111111101100 ;
b11111111111111111111111111101110 <
b11111111111111111111011111101110 =
b11111110110001000010000000000000 >
b111111111111101000010011111101100 ?
b00000000000000000000000000001100 A
b00000000000000000000000000001010 C
b00000000000000000000000000000000 D
0E
b00000000000000000000000000000000 F
b010000011000 H
1i
b00000000000000000001000001100000 l
b11111110110001000010011100000011 m
1p
1q
0r
b00000000000000000000000000000000 z
b00000000000000000000000000001010 }
#30
0i
#31
b00000000000000000001000001100100 #
b00000000000000000000000000000001 '
b00000000000100000000011110010011 (
0*
b00000 1
b00001 2
b01111 3
b00000000000000000000000000000001 4
b00000000000000000000000000000000 5
b00000000000000000001000011100100 6
b00000000000000000000000000000001 7
b00000000000000000000000000000000 9
b00000000000000000000000000000001 :
b00000000000000000000000000000001 ;
b00000000000000000000000000001111 <
b00000000000000000000100000001110 =
b00000000000100000000000000000000 >
b000000000000000000000100000000000 ?
b00000000000000000000000000000001 A
b0000000000 B
b00000000000000000001000011100100 D
b00000000000000000000000011100100 F
b010000011001 H
b00000000000000000000000000001010 W
1i
b00000000000000000001000001100100 l
b00000000000100000000011110010011 m
0q
b00000000000000000000000000000001 x
b00000000000000000000000000000000 y
b00000000000000000001000011100100 z
b00000000000000000000000000000001 {
b00000000000000000000000000000001 }
#32
0i
#33
b00000000000000000001000001101000 #
1%
b00000000000000000001000001111000 '
b00000000111101110000100001100011 (
0)
0,
b1100 .
b01110 1
b01111 2
b10000 3
b00000000000000000000000000010000 4
b00000000000000000000000000001010 5
b00000000000000000000000000000001 6
b00000000000000000001000001111000 7
b00 8
b00000000000000000000000000001010 9
b00000000000000000000000000001111 ;
b00000000000000000000000000010000 <
b00000000000000000000000000010000 =
b00000000111101110000000000000000 >
b000000000000001110000100000001110 ?
b00000000000000000000000000001111 A
b0000011110 B
b00000000000000000000000000000000 C
b00000000000000000000000000000001 D
b00000000000000000000000000000001 F
b010000011010 H
b00000000000000000000000000000001 X
1i
b00000000000000000001000001101000 l
b00000000111101110000100001100011 m
1o
0p
0s
b1100 u
b00000000000000000001000001111000 x
b00000000000000000000000000001010 y
b00000000000000000000000000000001 z
b00000000000000000000000000010000 {
b00000000000000000001000001111000 }
#34
0i
#35
b00000000000000000001000001101100 #
0%
b00000000000000000000000000001010 '
b11111110110001000010011100000011 (
1)
1*
1,
b0001 .
b01000 1
b01100 2
b01110 3
b11111111111111111111111111101100 4
b11111111111111111111111111100000 5
b00000000000000000000000000000000 6
b11111111111111111111111111001100 7
b01 8
b11111111111111111111111111100000 9
b11111111111111111111111111101100 :
b11111111111111111111111111101100 ;
b11111111111111111111111111101110 <
b11111111111111111111011111101110 =
b11111110110001000010000000000000 >
b111111111111101000010011111101100 ?
b00000000000000000000000000001100 A
b1111110011 B
b00000000000000000000000000001010 C
b00000000000000000000000000000000 D
b00000000000000000000000000000000 F
b010000011011 H
1i
b00000000000000000001000001101100 l
b11111110110001000010011100000011 m
0o
1p
1q
1s
b0001 u
b11111111111111111111111111001100 x
b11111111111111111111111111100000 y
b00000000000000000000000000000000 z
b11111111111111111111111111101100 {
b00000000000000000000000000001010 }
#36
0i
